{
    "language": "nashorn",
    "logic": "function randomforest(r){var n=function(r){for(var n=0,u=0;u<r.length;u++)n=r[u]>r[n]?u:n;return n},u=new Array;u.push(function(r){var u=new Array(2);return r[32]<=-1.7267885208129883?r[25]<=-1.797383964061737?(u[0]=0,u[1]=22):(u[0]=3,u[1]=0):r[93]<=-.19899749755859375?r[59]<=-1.0915414988994598?(u[0]=0,u[1]=9):(u[0]=5,u[1]=0):r[99]<=-.42821650207042694?r[81]<=.05525650084018707?(u[0]=0,u[1]=2):(u[0]=6,u[1]=0):r[54]<=1.5270610451698303?r[94]<=.24338100105524063?r[16]<=.11716650053858757?r[40]<=-1.0548959970474243?(u[0]=0,u[1]=900):r[72]<=.21290600299835205?r[89]<=.15087499469518661?r[34]<=-.041291999630630016?(u[0]=0,u[1]=1):(u[0]=8,u[1]=0):r[15]<=-1.5602524876594543?r[25]<=-1.3215015530586243?(u[0]=0,u[1]=1):(u[0]=2,u[1]=0):(u[0]=0,u[1]=33):(u[0]=0,u[1]=155):r[85]<=.3887065052986145?r[9]<=.04003999941051006?(u[0]=0,u[1]=1):(u[0]=10,u[1]=0):(u[0]=0,u[1]=10):r[2]<=.43704600632190704?r[95]<=.4076419919729233?r[15]<=.29737550020217896?r[85]<=.7861910164356232?r[5]<=.24913299828767776?r[9]<=-.0037770000053569674?(u[0]=0,u[1]=2362):r[22]<=-.0957765020430088?r[76]<=.20715399831533432?(u[0]=2,u[1]=0):(u[0]=0,u[1]=17):r[69]<=.10504100099205971?r[55]<=.11948049813508987?(u[0]=0,u[1]=3):(u[0]=2,u[1]=0):r[24]<=-.10202549770474434?r[28]<=-.05904749967157841?(u[0]=1,u[1]=0):(u[0]=0,u[1]=8):r[53]<=.21094650030136108?(u[0]=0,u[1]=829):r[53]<=.21106400340795517?(u[0]=1,u[1]=0):r[36]<=.08695399761199951?r[36]<=.08554599806666374?r[38]<=.14065100252628326?(u[0]=0,u[1]=89):r[17]<=.10851649940013885?(u[0]=0,u[1]=12):r[77]<=.387579008936882?(u[0]=3,u[1]=0):(u[0]=0,u[1]=5):(u[0]=1,u[1]=0):r[37]<=.3062855005264282?(u[0]=0,u[1]=429):r[36]<=.20881950110197067?(u[0]=1,u[1]=0):(u[0]=0,u[1]=38):r[35]<=.24960900098085403?(u[0]=0,u[1]=34):r[6]<=.24733349680900574?(u[0]=0,u[1]=1):(u[0]=2,u[1]=0):(u[0]=1,u[1]=0):r[81]<=.4718569964170456?(u[0]=7,u[1]=0):(u[0]=0,u[1]=2):r[81]<=.7349955141544342?r[24]<=.6496700048446655?r[23]<=.4590025097131729?r[82]<=.7548879981040955?r[7]<=.2755599915981293?r[93]<=.9251014888286591?r[93]<=.5138180255889893?r[94]<=.5604300200939178?r[4]<=.20529399812221527?r[52]<=.09161999821662903?r[29]<=.09372599795460701?(u[0]=0,u[1]=1067):r[96]<=.5445510149002075?(u[0]=0,u[1]=80):r[85]<=.3731885105371475?(u[0]=0,u[1]=2):(u[0]=1,u[1]=0):(u[0]=0,u[1]=6852):r[4]<=.20553549379110336?(u[0]=1,u[1]=0):r[1]<=.2938860058784485?(u[0]=0,u[1]=310):r[19]<=.2928269952535629?(u[0]=0,u[1]=11):(u[0]=1,u[1]=0):r[95]<=.5813824832439423?r[66]<=.42174650728702545?(u[0]=0,u[1]=4):(u[0]=2,u[1]=0):(u[0]=0,u[1]=377):r[4]<=.2559784948825836?(u[0]=0,u[1]=26956):r[90]<=.7979959845542908?(u[0]=0,u[1]=954):r[9]<=.20386499911546707?(u[0]=1,u[1]=0):(u[0]=0,u[1]=16):r[93]<=.9253719747066498?(u[0]=3,u[1]=0):(u[0]=0,u[1]=732):r[84]<=.35931000113487244?(u[0]=1,u[1]=0):r[68]<=.39947549998760223?r[11]<=.41459299623966217?r[65]<=.49340400099754333?r[85]<=.4111879914999008?r[42]<=.31942249834537506?(u[0]=0,u[1]=4):r[59]<=.4277385026216507?(u[0]=1,u[1]=0):(u[0]=0,u[1]=1):r[56]<=.4538380056619644?(u[0]=0,u[1]=125):r[50]<=.33274249732494354?(u[0]=1,u[1]=0):(u[0]=0,u[1]=20):r[42]<=.378293514251709?(u[0]=0,u[1]=3):(u[0]=2,u[1]=0):(u[0]=1,u[1]=0):r[96]<=.585056483745575?r[70]<=.542431503534317?(u[0]=0,u[1]=431):r[70]<=.5425705015659332?(u[0]=2,u[1]=0):r[7]<=.2895605117082596?r[11]<=.3588079959154129?(u[0]=0,u[1]=26):(u[0]=1,u[1]=0):(u[0]=0,u[1]=160):(u[0]=0,u[1]=2312):r[37]<=-.9521805047988892?(u[0]=2,u[1]=0):r[69]<=.7275490164756775?(u[0]=0,u[1]=293):r[93]<=.7149550020694733?r[67]<=.7151669859886169?(u[0]=1,u[1]=0):(u[0]=0,u[1]=1):(u[0]=0,u[1]=24):r[92]<=.6436294913291931?r[46]<=.41667549312114716?r[61]<=.4955890029668808?(u[0]=0,u[1]=1):(u[0]=3,u[1]=0):(u[0]=0,u[1]=19):(u[0]=0,u[1]=178):(u[0]=1,u[1]=0):r[33]<=.45846250653266907?r[18]<=.4418634921312332?(u[0]=0,u[1]=4495):r[10]<=.20541300624608994?(u[0]=2,u[1]=0):(u[0]=0,u[1]=214):(u[0]=0,u[1]=22671):r[85]<=.8548350036144257?r[14]<=.5466250032186508?(u[0]=0,u[1]=11):(u[0]=6,u[1]=0):r[89]<=.9033509790897369?r[68]<=.8011454939842224?(u[0]=0,u[1]=4):(u[0]=1,u[1]=0):(u[0]=0,u[1]=892):r[99]<=1.740052044391632?r[69]<=1.7387884855270386?r[79]<=1.6565485000610352?(u[0]=3,u[1]=0):(u[0]=0,u[1]=7):(u[0]=7,u[1]=0):r[4]<=.9575705230236053?(u[0]=0,u[1]=661):r[4]<=.957907497882843?(u[0]=1,u[1]=0):(u[0]=0,u[1]=23),n(u)}),u.push(function(r){var u=new Array(2);return r[97]<=-.45158348977565765?(u[0]=6,u[1]=0):r[93]<=.23254050314426422?r[2]<=-.3869579881429672?r[59]<=-.7457225024700165?(u[0]=0,u[1]=6):(u[0]=4,u[1]=0):r[12]<=.2219415009021759?r[10]<=.10860449820756912?r[39]<=.2947710007429123?r[51]<=-.884502500295639?(u[0]=0,u[1]=842):r[58]<=.010585000272840261?r[85]<=.20375750213861465?r[22]<=-.9275764971971512?(u[0]=1,u[1]=0):(u[0]=0,u[1]=2):(u[0]=3,u[1]=0):r[75]<=.13004899770021439?(u[0]=2,u[1]=0):r[14]<=-.20092150568962097?r[27]<=.11185900121927261?(u[0]=0,u[1]=7):(u[0]=1,u[1]=0):(u[0]=0,u[1]=217):r[89]<=.1919970028102398?(u[0]=1,u[1]=0):(u[0]=0,u[1]=3):r[87]<=.1600949987769127?(u[0]=4,u[1]=0):(u[0]=0,u[1]=28):r[33]<=.05910500045865774?(u[0]=0,u[1]=1):(u[0]=4,u[1]=0):r[48]<=1.400496482849121?r[90]<=.4230410009622574?r[9]<=.3511575013399124?r[26]<=.3636794984340668?r[14]<=.26826050877571106?r[73]<=.3557805120944977?r[75]<=.41386500000953674?r[42]<=.05006049945950508?(u[0]=0,u[1]=1819):r[63]<=.19756700098514557?r[82]<=.23089200258255005?r[42]<=.08844449743628502?(u[0]=2,u[1]=0):(u[0]=0,u[1]=2):r[8]<=.056495001539587975?(u[0]=0,u[1]=69):r[13]<=.055310001596808434?(u[0]=3,u[1]=0):(u[0]=0,u[1]=12):r[86]<=.274851992726326?r[64]<=.24606849998235703?(u[0]=2,u[1]=0):(u[0]=0,u[1]=14):(u[0]=0,u[1]=763):r[7]<=.35766999423503876?r[29]<=-.04164149984717369?r[22]<=-.07047199830412865?(u[0]=0,u[1]=1):(u[0]=2,u[1]=0):r[96]<=.14972449839115143?(u[0]=1,u[1]=0):r[48]<=.31659500300884247?r[15]<=.12060600146651268?(u[0]=0,u[1]=83):r[73]<=.3554615080356598?(u[0]=0,u[1]=23):(u[0]=1,u[1]=0):r[47]<=.293382003903389?(u[0]=2,u[1]=0):(u[0]=0,u[1]=8):(u[0]=1,u[1]=0):(u[0]=0,u[1]=2627):r[17]<=.19960200041532516?r[53]<=.28241799771785736?(u[0]=4,u[1]=0):(u[0]=0,u[1]=1):(u[0]=0,u[1]=21):r[99]<=.381912499666214?(u[0]=2,u[1]=0):(u[0]=0,u[1]=16):(u[0]=5,u[1]=0):r[18]<=.26674699783325195?r[76]<=.930664986371994?r[95]<=.28821198642253876?r[4]<=.21416449546813965?(u[0]=0,u[1]=134):r[38]<=.1417579986155033?(u[0]=0,u[1]=3):(u[0]=1,u[1]=0):r[87]<=.8204320073127747?r[90]<=.4495664983987808?r[2]<=.1426664963364601?(u[0]=0,u[1]=1401):r[4]<=.07344750314950943?r[59]<=.3070244938135147?(u[0]=0,u[1]=47):r[52]<=.21574699878692627?(u[0]=1,u[1]=0):(u[0]=0,u[1]=4):(u[0]=0,u[1]=219):(u[0]=0,u[1]=31313):r[86]<=.7859754860401154?r[87]<=.8204805254936218?(u[0]=1,u[1]=0):(u[0]=0,u[1]=93):r[38]<=-.8508244752883911?r[77]<=.6695984899997711?(u[0]=0,u[1]=267):r[38]<=-.8561774790287018?(u[0]=0,u[1]=2):(u[0]=1,u[1]=0):(u[0]=0,u[1]=2774):r[39]<=-.5854054987430573?r[63]<=.3978859931230545?(u[0]=0,u[1]=1):(u[0]=2,u[1]=0):(u[0]=0,u[1]=583):r[97]<=.2816914916038513?(u[0]=2,u[1]=0):r[84]<=.455763503909111?r[13]<=.3702464997768402?r[68]<=.3281014859676361?r[73]<=.5209690034389496?(u[0]=0,u[1]=4):(u[0]=1,u[1]=0):r[26]<=.14579500257968903?(u[0]=1,u[1]=0):(u[0]=0,u[1]=59):(u[0]=3,u[1]=0):r[29]<=.1245345026254654?r[7]<=.2847760021686554?(u[0]=0,u[1]=5):(u[0]=2,u[1]=0):r[95]<=.4194060117006302?r[27]<=.46545349061489105?(u[0]=0,u[1]=7):(u[0]=1,u[1]=0):r[56]<=.42481350898742676?r[29]<=.5563504993915558?r[92]<=.482170507311821?r[77]<=.4086335003376007?(u[0]=1,u[1]=0):(u[0]=0,u[1]=28):r[41]<=.5123195052146912?r[21]<=.4228290021419525?(u[0]=0,u[1]=1400):r[12]<=.22899699956178665?r[12]<=.22322750091552734?(u[0]=0,u[1]=1):(u[0]=1,u[1]=0):(u[0]=0,u[1]=29):r[85]<=.469478502869606?(u[0]=1,u[1]=0):(u[0]=0,u[1]=24):(u[0]=2,u[1]=0):r[2]<=.43987299501895905?r[87]<=.8459149897098541?r[43]<=.7613475024700165?r[11]<=.6710065007209778?r[88]<=.8376135230064392?r[19]<=.2349039986729622?r[18]<=.2669700086116791?(u[0]=1,u[1]=0):(u[0]=0,u[1]=97):(u[0]=0,u[1]=5013):r[71]<=.5101085007190704?(u[0]=1,u[1]=0):r[97]<=.7328974902629852?r[53]<=.5734235048294067?(u[0]=0,u[1]=22):r[69]<=.7374759912490845?(u[0]=1,u[1]=0):(u[0]=0,u[1]=1):(u[0]=0,u[1]=206):r[0]<=.2913070023059845?(u[0]=0,u[1]=14):(u[0]=1,u[1]=0):(u[0]=1,u[1]=0):(u[0]=0,u[1]=23115):r[93]<=.9875645041465759?r[33]<=.7545569837093353?(u[0]=0,u[1]=22):(u[0]=2,u[1]=0):(u[0]=0,u[1]=730):r[27]<=1.2058884501457214?(u[0]=5,u[1]=0):r[91]<=1.6546720266342163?r[31]<=1.3438915014266968?r[97]<=1.6302499771118164?(u[0]=0,u[1]=2):(u[0]=1,u[1]=0):(u[0]=3,u[1]=0):r[11]<=1.7624444961547852?r[92]<=1.8366159796714783?r[46]<=1.64936101436615?(u[0]=0,u[1]=82):(u[0]=1,u[1]=0):(u[0]=0,u[1]=631):r[80]<=2.3447749614715576?(u[0]=1,u[1]=0):(u[0]=0,u[1]=12),n(u)}),u.push(function(r){var u=new Array(2);return r[97]<=-.443634495139122?(u[0]=3,u[1]=0):r[89]<=.43493199348449707?r[8]<=.29360999166965485?r[10]<=.31457100808620453?r[89]<=.4349125027656555?r[17]<=.2788334935903549?r[46]<=.00936949998140335?r[98]<=-.264956995844841?r[98]<=-.2687399983406067?(u[0]=0,u[1]=32):(u[0]=1,u[1]=0):(u[0]=0,u[1]=3102):r[86]<=.054565499536693096?(u[0]=5,u[1]=0):r[91]<=.017105000093579292?(u[0]=1,u[1]=0):r[66]<=.09915600344538689?r[3]<=-.03789299912750721?(u[0]=0,u[1]=16):r[67]<=.148887500166893?(u[0]=0,u[1]=3):r[80]<=.23281200230121613?(u[0]=3,u[1]=0):(u[0]=0,u[1]=1):r[78]<=.12813249975442886?r[16]<=-.08927899866830558?(u[0]=0,u[1]=1):(u[0]=1,u[1]=0):r[79]<=.280239000916481?r[79]<=.2800374925136566?r[95]<=.15823949873447418?r[75]<=.3705409914255142?(u[0]=0,u[1]=3):(u[0]=1,u[1]=0):r[21]<=.19988249987363815?(u[0]=0,u[1]=113):r[85]<=.38147900998592377?(u[0]=1,u[1]=0):(u[0]=0,u[1]=1):(u[0]=2,u[1]=0):r[4]<=.07791799679398537?r[94]<=.3377314954996109?r[37]<=.3029865026473999?r[81]<=.2446405068039894?r[48]<=.0856809988617897?r[44]<=.045088998042047024?(u[0]=0,u[1]=2):(u[0]=1,u[1]=0):(u[0]=0,u[1]=17):(u[0]=0,u[1]=448):r[86]<=.42834800481796265?(u[0]=0,u[1]=4):(u[0]=1,u[1]=0):(u[0]=0,u[1]=2700):r[27]<=-.03379900008440018?r[38]<=.14614000171422958?r[75]<=.4074144959449768?(u[0]=0,u[1]=36):(u[0]=1,u[1]=0):(u[0]=3,u[1]=0):r[13]<=.27094049751758575?r[75]<=.4638639986515045?(u[0]=0,u[1]=394):r[75]<=.4654475003480911?(u[0]=1,u[1]=0):(u[0]=0,u[1]=56):r[84]<=.39325450360774994?(u[0]=1,u[1]=0):(u[0]=0,u[1]=15):r[99]<=.23016450554132462?(u[0]=2,u[1]=0):(u[0]=0,u[1]=35):(u[0]=3,u[1]=0):r[8]<=.22880350053310394?(u[0]=1,u[1]=0):(u[0]=0,u[1]=3):r[66]<=.4045975059270859?(u[0]=0,u[1]=14):r[91]<=.4229310005903244?(u[0]=8,u[1]=0):(u[0]=0,u[1]=3):r[94]<=.057800501585006714?(u[0]=2,u[1]=0):r[3]<=-.8739069998264313?r[86]<=.48896799981594086?(u[0]=3,u[1]=0):(u[0]=0,u[1]=17):r[53]<=1.5521720051765442?r[3]<=.4438665062189102?r[92]<=.44017401337623596?r[19]<=.3803215026855469?r[1]<=.2910585105419159?r[13]<=.24469750374555588?(u[0]=0,u[1]=2942):r[8]<=.29222649335861206?(u[0]=0,u[1]=32):r[21]<=.1964685022830963?(u[0]=0,u[1]=2):(u[0]=1,u[1]=0):r[66]<=.4573199898004532?(u[0]=0,u[1]=9):(u[0]=1,u[1]=0):(u[0]=5,u[1]=0):r[14]<=.15199749916791916?r[84]<=.9586310088634491?(u[0]=0,u[1]=26713):r[66]<=.17428049445152283?(u[0]=1,u[1]=0):r[25]<=-.5055865049362183?r[56]<=.22129850089550018?(u[0]=0,u[1]=171):r[21]<=-.6428214907646179?(u[0]=1,u[1]=0):(u[0]=0,u[1]=1):(u[0]=0,u[1]=1067):r[63]<=.1886250004172325?r[75]<=.3960935026407242?(u[0]=2,u[1]=0):(u[0]=0,u[1]=9):r[94]<=.9316615164279938?r[6]<=.4662874937057495?r[1]<=.2435540035367012?r[75]<=.40204450488090515?r[81]<=.5924330055713654?r[66]<=.29614999890327454?r[42]<=.36194799840450287?(u[0]=0,u[1]=35):(u[0]=1,u[1]=0):(u[0]=0,u[1]=220):r[8]<=.3044849932193756?(u[0]=0,u[1]=6):(u[0]=1,u[1]=0):r[84]<=.42915549874305725?r[7]<=.31579649448394775?(u[0]=0,u[1]=114):(u[0]=1,u[1]=0):r[35]<=.47882550954818726?r[81]<=.49440349638462067?r[74]<=.598050981760025?(u[0]=0,u[1]=971):r[94]<=.5210644900798798?(u[0]=1,u[1]=0):(u[0]=0,u[1]=29):(u[0]=0,u[1]=8011):r[29]<=.2958029955625534?r[29]<=.2948794960975647?(u[0]=0,u[1]=34):(u[0]=2,u[1]=0):r[31]<=.3453674912452698?r[15]<=.4223169982433319?(u[0]=0,u[1]=42):r[73]<=.6475639939308167?(u[0]=0,u[1]=1):(u[0]=1,u[1]=0):(u[0]=0,u[1]=875):r[89]<=.9844234883785248?r[22]<=.46201199293136597?r[83]<=.48921599984169006?r[19]<=.3328839987516403?(u[0]=0,u[1]=90):r[78]<=.4509425014257431?(u[0]=2,u[1]=0):r[49]<=.311662495136261?r[11]<=.3067760020494461?(u[0]=1,u[1]=0):(u[0]=0,u[1]=1):(u[0]=0,u[1]=11):(u[0]=0,u[1]=1789):r[20]<=.4044315069913864?r[85]<=.6838769912719727?r[79]<=.6533010005950928?(u[0]=0,u[1]=2):(u[0]=5,u[1]=0):(u[0]=0,u[1]=11):(u[0]=0,u[1]=201):r[89]<=.985652506351471?(u[0]=2,u[1]=0):(u[0]=0,u[1]=47):r[43]<=.7556500136852264?r[92]<=.6388645172119141?(u[0]=1,u[1]=0):r[88]<=.757968008518219?r[41]<=.5146049857139587?(u[0]=0,u[1]=13):(u[0]=1,u[1]=0):(u[0]=0,u[1]=181):(u[0]=2,u[1]=0):(u[0]=0,u[1]=21841):r[98]<=.8274330198764801?r[36]<=-.10013848543167114?(u[0]=0,u[1]=3):(u[0]=5,u[1]=0):r[17]<=.5604164898395538?r[11]<=.6234830021858215?(u[0]=0,u[1]=62):(u[0]=2,u[1]=0):(u[0]=0,u[1]=1758):r[76]<=1.6624464988708496?(u[0]=2,u[1]=0):r[99]<=1.7462565302848816?r[97]<=1.7020729780197144?(u[0]=0,u[1]=1):(u[0]=3,u[1]=0):r[4]<=.9574420154094696?(u[0]=0,u[1]=578):r[6]<=1.2118034958839417?r[42]<=1.9068424701690674?(u[0]=0,u[1]=3):(u[0]=1,u[1]=0):(u[0]=0,u[1]=18),n(u)}),u.push(function(r){var u=new Array(2);return r[78]<=-.8468930125236511?(u[0]=1,u[1]=0):r[46]<=1.6944385170936584?r[90]<=.16976400464773178?r[99]<=-.6098109930753708?(u[0]=4,u[1]=0):r[22]<=-.11084749922156334?(u[0]=0,u[1]=702):r[68]<=.1281994991004467?r[87]<=.20476999878883362?(u[0]=12,u[1]=0):(u[0]=0,u[1]=1):r[8]<=-.13684749603271484?r[84]<=.17785000056028366?(u[0]=0,u[1]=1):(u[0]=2,u[1]=0):r[55]<=.1605604961514473?r[60]<=.23464799672365189?(u[0]=0,u[1]=4):(u[0]=1,u[1]=0):(u[0]=0,u[1]=55):r[95]<=-.0367639996111393?r[45]<=-1.1779620051383972?(u[0]=0,u[1]=2):(u[0]=4,u[1]=0):r[93]<=.4601784944534302?r[21]<=.27354849874973297?r[3]<=-.8623965084552765?(u[0]=1,u[1]=0):r[20]<=.24723300337791443?r[98]<=-.12184949964284897?r[69]<=-.26820799708366394?(u[0]=0,u[1]=18):(u[0]=1,u[1]=0):r[93]<=.46016499400138855?r[16]<=.26144200563430786?r[6]<=.2858565002679825?r[93]<=.297993004322052?r[23]<=.24700500071048737?r[54]<=.15187999606132507?(u[0]=0,u[1]=766):r[29]<=-.019025499932467937?r[75]<=.26756399869918823?(u[0]=5,u[1]=0):(u[0]=0,u[1]=12):(u[0]=0,u[1]=481):r[27]<=.11698299646377563?(u[0]=2,u[1]=0):(u[0]=0,u[1]=7):r[79]<=.3840685039758682?r[79]<=.38404200971126556?r[51]<=.2224844992160797?(u[0]=0,u[1]=2288):r[5]<=.1880050003528595?r[1]<=.08704349771142006?(u[0]=0,u[1]=490):r[80]<=.30701400339603424?r[11]<=.037469999864697456?(u[0]=1,u[1]=0):(u[0]=0,u[1]=5):(u[0]=0,u[1]=44):r[2]<=.15902500227093697?(u[0]=1,u[1]=0):(u[0]=0,u[1]=13):r[54]<=.32790200412273407?(u[0]=0,u[1]=3):(u[0]=2,u[1]=0):(u[0]=0,u[1]=3971):r[0]<=.11874400079250336?(u[0]=1,u[1]=0):(u[0]=0,u[1]=20):r[16]<=.26243749260902405?(u[0]=1,u[1]=0):(u[0]=0,u[1]=31):(u[0]=4,u[1]=0):r[21]<=.22260849922895432?r[43]<=.33171649277210236?(u[0]=0,u[1]=7):r[29]<=.37150099873542786?(u[0]=4,u[1]=0):(u[0]=0,u[1]=1):r[74]<=.30205799639225006?(u[0]=1,u[1]=0):(u[0]=0,u[1]=72):r[14]<=.3722584992647171?r[8]<=.36285799741744995?r[16]<=.36179499328136444?r[17]<=.3248099982738495?(u[0]=0,u[1]=85):r[21]<=.2769484966993332?(u[0]=1,u[1]=0):(u[0]=0,u[1]=12):(u[0]=1,u[1]=0):(u[0]=3,u[1]=0):(u[0]=5,u[1]=0):r[73]<=.8231030106544495?r[6]<=.626502513885498?r[6]<=.5722270011901855?r[9]<=.6419565081596375?r[4]<=.23987050354480743?r[3]<=-.764724999666214?r[97]<=.18110500276088715?(u[0]=1,u[1]=0):(u[0]=0,u[1]=82):r[84]<=1.1954910159111023?r[73]<=.3607420027256012?r[41]<=.2338634952902794?r[5]<=-1.182216465473175?r[53]<=-.3889005035161972?(u[0]=0,u[1]=786):r[97]<=.9206134676933289?(u[0]=1,u[1]=0):(u[0]=0,u[1]=1):(u[0]=0,u[1]=5689):r[54]<=.23452550172805786?r[73]<=.359826996922493?r[48]<=.33031100034713745?(u[0]=0,u[1]=60):r[42]<=.2502475008368492?(u[0]=0,u[1]=2):(u[0]=2,u[1]=0):(u[0]=2,u[1]=0):(u[0]=0,u[1]=314):r[38]<=-.8508244752883911?r[75]<=.6796000003814697?(u[0]=0,u[1]=229):r[83]<=.9155569970607758?(u[0]=1,u[1]=0):(u[0]=0,u[1]=3):r[20]<=.34800800681114197?(u[0]=0,u[1]=27848):r[20]<=.3480460047721863?(u[0]=1,u[1]=0):r[36]<=.37119148671627045?r[24]<=.43347349762916565?(u[0]=0,u[1]=287):r[56]<=.4064920097589493?(u[0]=1,u[1]=0):(u[0]=0,u[1]=15):(u[0]=0,u[1]=1492):r[53]<=.09305250085890293?(u[0]=0,u[1]=34):r[17]<=-.2430800050497055?(u[0]=2,u[1]=0):(u[0]=0,u[1]=2):r[85]<=.49143050611019135?r[85]<=.49097099900245667&&r[11]<=.40922850370407104?r[26]<=.19623950123786926?r[1]<=.18527449667453766?r[68]<=.3693099915981293?(u[0]=2,u[1]=0):(u[0]=0,u[1]=1):r[22]<=.31825849413871765?(u[0]=0,u[1]=55):(u[0]=1,u[1]=0):(u[0]=0,u[1]=161):(u[0]=2,u[1]=0):r[86]<=.5366219878196716?r[86]<=.5364975035190582?r[58]<=.6172820031642914?r[53]<=.27487049996852875?r[51]<=.3146824985742569?(u[0]=0,u[1]=28):r[91]<=.5663835108280182?(u[0]=0,u[1]=3):(u[0]=1,u[1]=0):(u[0]=0,u[1]=367):r[67]<=.559922993183136?(u[0]=0,u[1]=1):(u[0]=2,u[1]=0):(u[0]=2,u[1]=0):r[73]<=.6716339886188507?(u[0]=0,u[1]=2694):r[98]<=.3902425020933151?(u[0]=1,u[1]=0):r[62]<=.5542420148849487?r[22]<=.4135130047798157?r[78]<=.7378645241260529?(u[0]=0,u[1]=84):r[49]<=.5381855070590973?(u[0]=0,u[1]=10):(u[0]=1,u[1]=0):r[23]<=.4014510065317154?(u[0]=2,u[1]=0):(u[0]=0,u[1]=15):(u[0]=0,u[1]=2442):r[48]<=.6190129816532135?(u[0]=0,u[1]=23):(u[0]=2,u[1]=0):r[98]<=.4254844971001148?(u[0]=2,u[1]=0):(u[0]=0,u[1]=3):(u[0]=4,u[1]=0):r[90]<=.8191674947738647?r[41]<=.7448824942111969?(u[0]=0,u[1]=97):(u[0]=1,u[1]=0):r[51]<=1.431633472442627?(u[0]=0,u[1]=22115):r[67]<=1.4964730143547058?(u[0]=2,u[1]=0):(u[0]=0,u[1]=662):r[35]<=1.5384765267372131?(u[0]=4,u[1]=0):r[11]<=1.7624444961547852?(u[0]=0,u[1]=192):r[71]<=2.310229539871216?(u[0]=2,u[1]=0):(u[0]=0,u[1]=10),n(u)}),u.push(function(r){var u=new Array(2);return r[95]<=-.4060864895582199?(u[0]=6,u[1]=0):r[97]<=-.45158348977565765?(u[0]=3,u[1]=0):r[77]<=.343362495303154?r[53]<=.4359249919652939?r[2]<=-.40855300426483154?r[18]<=-1.5101065039634705?r[57]<=-.6710844933986664?(u[0]=0,u[1]=4):(u[0]=4,u[1]=0):(u[0]=0,u[1]=43):r[16]<=.2600245028734207?r[96]<=.0007650000625289977?r[12]<=-.21125200390815735?(u[0]=0,u[1]=233):r[46]<=-.057939999271184206?(u[0]=0,u[1]=1):(u[0]=9,u[1]=0):r[5]<=.008724499959498644?r[0]<=-.08505599945783615?r[97]<=.06756550259888172?r[74]<=.19054999947547913?(u[0]=0,u[1]=1):(u[0]=2,u[1]=0):(u[0]=0,u[1]=378):(u[0]=0,u[1]=6390):r[48]<=.3946859985589981?r[60]<=.14081399887800217?r[52]<=.17994999885559082?r[93]<=.16333600133657455?r[88]<=.13447800278663635?(u[0]=1,u[1]=0):(u[0]=0,u[1]=1):(u[0]=0,u[1]=87):r[20]<=.03372050076723099?r[89]<=.3821139931678772?(u[0]=4,u[1]=0):(u[0]=0,u[1]=1):(u[0]=0,u[1]=2):r[69]<=.37862350046634674?r[29]<=.1303200051188469?(u[0]=0,u[1]=768):r[79]<=.272149994969368?r[83]<=.4306875020265579?(u[0]=0,u[1]=12):(u[0]=2,u[1]=0):(u[0]=0,u[1]=194):r[44]<=.06229499913752079?r[11]<=.06475299783051014?(u[0]=2,u[1]=0):r[69]<=.37965749204158783?(u[0]=1,u[1]=0):(u[0]=0,u[1]=24):(u[0]=0,u[1]=94):(u[0]=1,u[1]=0):r[62]<=.3277155011892319?(u[0]=2,u[1]=0):(u[0]=0,u[1]=3):(u[0]=1,u[1]=0):r[47]<=1.4120244979858398?r[5]<=.8103479743003845?r[33]<=-.8955549895763397?r[48]<=-.5156380087137222?(u[0]=0,u[1]=29):(u[0]=2,u[1]=0):r[67]<=.23620250076055527?r[87]<=1.0273230075836182?r[92]<=.331385001540184?r[33]<=-.049382999539375305?(u[0]=2,u[1]=0):r[80]<=.297280490398407?r[18]<=.044127000495791435?(u[0]=0,u[1]=5):(u[0]=1,u[1]=0):(u[0]=0,u[1]=110):(u[0]=0,u[1]=1986):r[71]<=.4727720022201538?(u[0]=0,u[1]=8):(u[0]=4,u[1]=0):r[8]<=.2047325000166893?r[88]<=1.2481714487075806?r[25]<=.2035684958100319?(u[0]=0,u[1]=24472):r[98]<=.43778400123119354?r[65]<=.29683350026607513?r[86]<=.570621520280838?(u[0]=0,u[1]=35):(u[0]=1,u[1]=0):(u[0]=0,u[1]=494):(u[0]=0,u[1]=6180):r[97]<=.6961179971694946?(u[0]=1,u[1]=0):(u[0]=0,u[1]=744):r[21]<=.018201000057160854?r[60]<=.2679309993982315?(u[0]=3,u[1]=0):(u[0]=0,u[1]=16):r[96]<=.5335749983787537?r[72]<=.7361325025558472?r[14]<=.39817000925540924?r[18]<=.3920844942331314?r[8]<=.28526249527931213?r[79]<=.38286900520324707?r[97]<=.5850189924240112?(u[0]=0,u[1]=36):(u[0]=1,u[1]=0):(u[0]=0,u[1]=655):r[86]<=.41951799392700195?r[12]<=.24962200224399567?(u[0]=0,u[1]=3):(u[0]=4,u[1]=0):r[91]<=.3285930007696152?(u[0]=1,u[1]=0):r[51]<=.44441451132297516?(u[0]=0,u[1]=191):r[51]<=.4463125020265579?(u[0]=1,u[1]=0):(u[0]=0,u[1]=34):r[39]<=.2872065082192421?(u[0]=2,u[1]=0):(u[0]=0,u[1]=7):r[19]<=.3927935063838959?(u[0]=0,u[1]=9):r[56]<=.4153269976377487?(u[0]=0,u[1]=1):(u[0]=3,u[1]=0):(u[0]=3,u[1]=0):r[91]<=.9649269878864288?r[8]<=.20477350056171417?(u[0]=3,u[1]=0):r[48]<=.8445005118846893?r[5]<=.11901699751615524?r[10]<=.3231554925441742?(u[0]=0,u[1]=215):r[10]<=.3243445008993149?(u[0]=2,u[1]=0):(u[0]=0,u[1]=16):r[82]<=.5375604927539825?r[82]<=.5375224947929382?r[17]<=.43263499438762665?r[79]<=.42959849536418915?r[73]<=.5387244820594788?(u[0]=0,u[1]=62):r[29]<=.239889994263649?(u[0]=0,u[1]=2):(u[0]=2,u[1]=0):(u[0]=0,u[1]=1044):r[99]<=.5771874785423279?(u[0]=1,u[1]=0):(u[0]=0,u[1]=10):r[90]<=.5257180035114288?(u[0]=1,u[1]=0):(u[0]=0,u[1]=4):r[9]<=.6422635018825531?r[39]<=.7124065160751343?r[10]<=.2032795026898384?r[11]<=.23144149780273438?(u[0]=0,u[1]=542):r[11]<=.23217549920082092?(u[0]=1,u[1]=0):(u[0]=0,u[1]=36):r[78]<=.8592574894428253?(u[0]=0,u[1]=6598):r[85]<=.6897605061531067?(u[0]=1,u[1]=0):(u[0]=0,u[1]=920):r[62]<=.5570429861545563?(u[0]=1,u[1]=0):(u[0]=0,u[1]=125):r[3]<=.26504650712013245?r[95]<=.8822484910488129?(u[0]=1,u[1]=0):(u[0]=0,u[1]=4):(u[0]=0,u[1]=115):r[55]<=.7448050081729889?(u[0]=2,u[1]=0):(u[0]=0,u[1]=20):(u[0]=0,u[1]=21083):r[79]<=1.0399785339832306?(u[0]=3,u[1]=0):(u[0]=0,u[1]=214):r[99]<=1.6173434853553772?(u[0]=3,u[1]=0):r[91]<=1.6751105189323425?r[75]<=1.658667504787445?(u[0]=0,u[1]=2):(u[0]=1,u[1]=0):r[3]<=.8027185201644897?r[36]<=1.469587504863739?r[52]<=1.7878294587135315?(u[0]=0,u[1]=129):(u[0]=1,u[1]=0):(u[0]=0,u[1]=503):r[37]<=1.8450289964675903?(u[0]=0,u[1]=14):(u[0]=1,u[1]=0),n(u)}),u.push(function(r){var u=new Array(2);return r[96]<=-.4028470069169998?(u[0]=6,u[1]=0):r[93]<=.16042950004339218?r[30]<=.2491215094923973?r[53]<=-1.0176944732666016?(u[0]=0,u[1]=668):r[29]<=-.6158705055713654?(u[0]=6,u[1]=0):r[53]<=.06188350170850754?r[33]<=.042074501514434814?r[66]<=.06430100090801716?r[68]<=-.07756650075316429?(u[0]=0,u[1]=1):(u[0]=1,u[1]=0):(u[0]=0,u[1]=9):(u[0]=5,u[1]=0):r[90]<=.05928549915552139?(u[0]=1,u[1]=0):r[78]<=.17282599955797195?r[81]<=.24394400417804718?(u[0]=1,u[1]=0):(u[0]=0,u[1]=2):(u[0]=0,u[1]=57):(u[0]=4,u[1]=0):r[84]<=2.2940460443496704?r[92]<=.33293500542640686?r[15]<=.2641710042953491?r[16]<=-2.1480244398117065?r[32]<=-1.0261385142803192?(u[0]=0,u[1]=54):(u[0]=2,u[1]=0):r[73]<=.34909650683403015?r[22]<=.23639599978923798?r[95]<=.04704250022768974?r[54]<=-.7115130126476288?(u[0]=0,u[1]=7):r[89]<=.37076351046562195?(u[0]=2,u[1]=0):(u[0]=0,u[1]=1):r[50]<=.14170150458812714?(u[0]=0,u[1]=966):r[28]<=-.030516499653458595?r[12]<=-.026210499927401543?(u[0]=0,u[1]=6):(u[0]=5,u[1]=0):r[23]<=-.05268849991261959?r[20]<=-.010806499980390072?(u[0]=0,u[1]=4):(u[0]=2,u[1]=0):r[82]<=.22655100375413895?r[76]<=.47849100828170776?(u[0]=0,u[1]=24):(u[0]=1,u[1]=0):(u[0]=0,u[1]=193):r[12]<=.12745799496769905?(u[0]=0,u[1]=1):(u[0]=1,u[1]=0):(u[0]=0,u[1]=1e3):(u[0]=6,u[1]=0):r[4]<=.06790300086140633?r[92]<=.982072502374649?r[88]<=.7252810001373291?(u[0]=0,u[1]=22879):r[88]<=.725431501865387?(u[0]=1,u[1]=0):(u[0]=0,u[1]=3940):r[99]<=.3792789876461029?(u[0]=1,u[1]=0):r[47]<=-.7608059942722321?r[41]<=-.48621349036693573?(u[0]=0,u[1]=56):r[29]<=-.6715790033340454?(u[0]=0,u[1]=2):(u[0]=1,u[1]=0):(u[0]=0,u[1]=1841):r[91]<=.506170004606247?r[40]<=.62482950091362&&r[13]<=.4146284908056259?r[46]<=.10793900117278099?(u[0]=0,u[1]=1218):r[98]<=.2173435017466545?(u[0]=1,u[1]=0):r[96]<=.40933649241924286?r[22]<=.33326399326324463?r[2]<=-.04002800025045872?(u[0]=1,u[1]=0):r[23]<=.06422549858689308?r[87]<=.4672755002975464&&r[19]<=.08257700130343437?r[41]<=.30279000103473663?(u[0]=0,u[1]=28):(u[0]=1,u[1]=0):(u[0]=2,u[1]=0):(u[0]=0,u[1]=70):(u[0]=2,u[1]=0):r[42]<=.3628830015659332?r[51]<=.13789749890565872?r[58]<=.31317999958992004?(u[0]=0,u[1]=71):r[17]<=-.018007499515078962?(u[0]=3,u[1]=0):(u[0]=0,u[1]=3):r[89]<=.4222230017185211?r[0]<=-.01052400004118681?r[2]<=.09714450314640999?(u[0]=0,u[1]=18):r[40]<=.2839234992861748?(u[0]=1,u[1]=0):(u[0]=0,u[1]=2):(u[0]=0,u[1]=142):(u[0]=0,u[1]=948):r[91]<=.5060434937477112?r[77]<=.38186100125312805?r[13]<=.2517955005168915?(u[0]=2,u[1]=0):(u[0]=0,u[1]=2):r[26]<=.14108850061893463?r[20]<=.22885749489068985?(u[0]=0,u[1]=1):(u[0]=1,u[1]=0):(u[0]=0,u[1]=205):(u[0]=2,u[1]=0):(u[0]=1,u[1]=0):r[99]<=.22671100497245789?(u[0]=3,u[1]=0):r[96]<=.3125095069408417?r[28]<=.41477900743484497?(u[0]=0,u[1]=3):(u[0]=1,u[1]=0):r[65]<=.31835000216960907?r[96]<=.4109579920768738?r[46]<=.20815500617027283?(u[0]=0,u[1]=6):(u[0]=3,u[1]=0):r[7]<=.1769620031118393?(u[0]=0,u[1]=711):r[26]<=.08654949814081192?r[38]<=.13270200043916702?(u[0]=0,u[1]=5):(u[0]=2,u[1]=0):(u[0]=0,u[1]=55):r[92]<=.9473479986190796?r[7]<=.6620550155639648?r[48]<=.8445005118846893?r[14]<=.26093900203704834?(u[0]=0,u[1]=8852):r[14]<=.26096849143505096?r[98]<=.6871359944343567?(u[0]=0,u[1]=1):(u[0]=3,u[1]=0):r[90]<=.48659999668598175?r[75]<=.5914969742298126?(u[0]=0,u[1]=81):r[49]<=.46887101233005524?(u[0]=2,u[1]=0):(u[0]=0,u[1]=6):r[77]<=.44689400494098663?r[67]<=.3922959864139557?r[84]<=.5554695129394531?(u[0]=0,u[1]=20):(u[0]=2,u[1]=0):(u[0]=0,u[1]=88):r[47]<=.49229399859905243?r[77]<=.4901524931192398?r[89]<=.6926774978637695?(u[0]=0,u[1]=284):r[0]<=.23899149149656296?(u[0]=0,u[1]=8):(u[0]=1,u[1]=0):(u[0]=0,u[1]=4073):r[92]<=.9472990036010742?r[31]<=.31525950133800507?r[73]<=.7859165072441101?(u[0]=0,u[1]=174):r[7]<=.21251600235700607?(u[0]=0,u[1]=2):(u[0]=3,u[1]=0):r[12]<=.2713164985179901?r[46]<=.41485750675201416?r[36]<=.5407689809799194?(u[0]=0,u[1]=4):(u[0]=1,u[1]=0):r[3]<=.16004500538110733?r[29]<=.3378809988498688?r[39]<=.4531230032444?(u[0]=0,u[1]=8):r[56]<=.5737624764442444?(u[0]=0,u[1]=1):(u[0]=2,u[1]=0):(u[0]=0,u[1]=63):(u[0]=0,u[1]=417):r[9]<=.6422635018825531?r[39]<=.40808549523353577?r[0]<=.27242250740528107?(u[0]=0,u[1]=201):r[39]<=.40637749433517456?(u[0]=0,u[1]=25):(u[0]=1,u[1]=0):(u[0]=0,u[1]=1705):r[71]<=.7480894923210144?(u[0]=1,u[1]=0):(u[0]=0,u[1]=52):(u[0]=1,u[1]=0):r[92]<=.8974270224571228?(u[0]=2,u[1]=0):(u[0]=0,u[1]=9):r[50]<=.7314425110816956?(u[0]=0,u[1]=3):(u[0]=3,u[1]=0):r[3]<=.6638100147247314?(u[0]=0,u[1]=23171):r[40]<=1.2076119780540466?r[38]<=1.2522169947624207?(u[0]=0,u[1]=12):(u[0]=1,u[1]=0):(u[0]=0,u[1]=250):r[79]<=2.0281585454940796?(u[0]=5,u[1]=0):(u[0]=0,u[1]=188),n(u)}),u.push(function(r){var u=new Array(2);return r[80]<=-.8056110143661499?(u[0]=2,u[1]=0):r[95]<=-.3120484948158264?(u[0]=5,u[1]=0):r[91]<=.4290419965982437?r[20]<=.384272500872612?r[8]<=.3608645051717758?r[3]<=.34183400869369507?r[21]<=.2171429991722107?r[94]<=.07203800231218338?r[14]<=.10747800022363663?r[30]<=.10470100119709969?r[43]<=-1.1765769720077515?(u[0]=0,u[1]=325):r[99]<=-.30692199617624283?(u[0]=3,u[1]=0):r[0]<=.06957000214606524?(u[0]=0,u[1]=16):(u[0]=1,u[1]=0):(u[0]=2,u[1]=0):(u[0]=4,u[1]=0):r[8]<=.05820250138640404?r[47]<=.3920625001192093?r[80]<=.2973629981279373?r[13]<=-.022975499741733074?(u[0]=0,u[1]=1909):r[24]<=-.05071350000798702?r[50]<=.12205100432038307?(u[0]=0,u[1]=13):r[59]<=.20005999505519867?(u[0]=2,u[1]=0):(u[0]=0,u[1]=1):r[59]<=.10678400099277496?r[67]<=.21538399904966354?(u[0]=0,u[1]=2):(u[0]=1,u[1]=0):(u[0]=0,u[1]=89):(u[0]=0,u[1]=3418):r[3]<=.05920499749481678?(u[0]=0,u[1]=57):r[72]<=.43884100019931793?(u[0]=1,u[1]=0):(u[0]=0,u[1]=2):r[60]<=.046416500583291054?r[26]<=.04159099981188774?(u[0]=0,u[1]=1):(u[0]=3,u[1]=0):r[26]<=-.035115499049425125?r[19]<=.11242049932479858?r[8]<=.062497999519109726?r[75]<=.238304004073143?(u[0]=0,u[1]=1):(u[0]=3,u[1]=0):(u[0]=0,u[1]=71):(u[0]=2,u[1]=0):r[81]<=.22776100039482117?r[93]<=.18542350456118584?(u[0]=1,u[1]=0):r[34]<=.22653750330209732?(u[0]=0,u[1]=24):r[56]<=.24364500120282173?(u[0]=1,u[1]=0):(u[0]=0,u[1]=1):r[76]<=.5008399933576584?r[63]<=.19711700081825256?r[68]<=.3396724909543991?(u[0]=0,u[1]=122):r[12]<=.07702349871397018?(u[0]=2,u[1]=0):(u[0]=0,u[1]=3):(u[0]=0,u[1]=915):r[64]<=.2977200001478195?r[34]<=.20812950283288956?(u[0]=0,u[1]=4):(u[0]=3,u[1]=0):(u[0]=0,u[1]=72):r[1]<=.2804879993200302?r[96]<=.3101544976234436?r[87]<=.3518984913825989?(u[0]=4,u[1]=0):(u[0]=0,u[1]=2):r[75]<=.29165950417518616?r[68]<=.3000604957342148?(u[0]=1,u[1]=0):(u[0]=0,u[1]=3):(u[0]=0,u[1]=216):(u[0]=4,u[1]=0):r[32]<=-.35897599160671234?(u[0]=0,u[1]=1):(u[0]=2,u[1]=0):(u[0]=1,u[1]=0):(u[0]=8,u[1]=0):r[9]<=1.0394169688224792?r[99]<=-.19588200002908707?(u[0]=2,u[1]=0):r[86]<=.9456200003623962?r[3]<=.584804505109787?r[35]<=.7994644939899445?r[33]<=.7609639763832092?r[10]<=.581046998500824?r[21]<=.3871240019798279?r[2]<=-.42136500775814056?r[27]<=-.5746489763259888?(u[0]=0,u[1]=59):r[46]<=-.5494399815797806?(u[0]=0,u[1]=2):(u[0]=1,u[1]=0):r[87]<=.49713750183582306?r[57]<=.5276960134506226?r[13]<=.3061324954032898?r[10]<=.08336499705910683?r[11]<=.036217501387000084?(u[0]=0,u[1]=4922):r[79]<=.2700610011816025?r[64]<=.2803564965724945?(u[0]=0,u[1]=8):r[0]<=.05710349977016449?(u[0]=0,u[1]=1):(u[0]=2,u[1]=0):(u[0]=0,u[1]=872):r[10]<=.08340299874544144?(u[0]=5,u[1]=0):r[64]<=.5024375021457672?r[18]<=.2857924997806549?(u[0]=0,u[1]=1433):r[62]<=.33575649559497833?r[62]<=.33040449023246765?(u[0]=0,u[1]=6):(u[0]=1,u[1]=0):(u[0]=0,u[1]=131):r[9]<=.29480549693107605?(u[0]=0,u[1]=80):r[59]<=.4209820032119751?(u[0]=1,u[1]=0):(u[0]=0,u[1]=4):r[59]<=.3495839983224869?r[13]<=.3101940006017685?(u[0]=2,u[1]=0):(u[0]=0,u[1]=4):(u[0]=0,u[1]=96):r[50]<=.3824329972267151?(u[0]=1,u[1]=0):(u[0]=0,u[1]=17):r[11]<=.23154299706220627?(u[0]=0,u[1]=25979):r[21]<=.02460499946027994?(u[0]=1,u[1]=0):r[68]<=.32627949118614197?r[5]<=.28067000210285187?(u[0]=0,u[1]=32):(u[0]=1,u[1]=0):r[11]<=.23160599917173386?(u[0]=1,u[1]=0):r[38]<=.4765390008687973?(u[0]=0,u[1]=5194):r[91]<=.5984754860401154?r[86]<=.5365824997425079?r[8]<=.22709150612354279?(u[0]=0,u[1]=1):(u[0]=1,u[1]=0):(u[0]=0,u[1]=39):r[0]<=.12028399854898453?r[72]<=.7213544845581055?(u[0]=0,u[1]=119):r[15]<=.40755049884319305?(u[0]=0,u[1]=18):r[72]<=.7305779755115509?(u[0]=1,u[1]=0):(u[0]=0,u[1]=1):(u[0]=0,u[1]=970):r[93]<=.4499190002679825?r[33]<=.4740304946899414?(u[0]=0,u[1]=3):(u[0]=2,u[1]=0):r[98]<=.3677215129137039?(u[0]=2,u[1]=0):r[63]<=.5990179777145386?r[58]<=.6565579771995544?r[71]<=.7116920053958893?r[90]<=.8383659720420837?r[11]<=.1964145004749298?r[23]<=.4536540061235428?(u[0]=0,u[1]=38):r[0]<=.05759450141340494?(u[0]=0,u[1]=1):(u[0]=2,u[1]=0):(u[0]=0,u[1]=596):r[99]<=.7377364933490753?r[74]<=.6407860219478607?(u[0]=2,u[1]=0):(u[0]=0,u[1]=1):(u[0]=0,u[1]=15):r[81]<=.6343569755554199?r[74]<=.6492480039596558?(u[0]=0,u[1]=5):(u[0]=2,u[1]=0):(u[0]=0,u[1]=26):r[58]<=.6572764813899994?(u[0]=2,u[1]=0):(u[0]=0,u[1]=26):r[8]<=.2048729956150055?r[6]<=.2613289952278137?(u[0]=0,u[1]=79):r[62]<=.6889660060405731?(u[0]=0,u[1]=3):(u[0]=2,u[1]=0):(u[0]=0,u[1]=2749):r[97]<=.44555850327014923?(u[0]=1,u[1]=0):r[35]<=.6477965116500854?(u[0]=0,u[1]=166):r[26]<=.5909550189971924?(u[0]=3,u[1]=0):(u[0]=0,u[1]=17):r[1]<=.41407249867916107?r[35]<=.6858904957771301?(u[0]=1,u[1]=0):(u[0]=0,u[1]=16):(u[0]=1,u[1]=0):r[7]<=.6135755181312561?(u[0]=0,u[1]=9):(u[0]=4,u[1]=0):(u[0]=3,u[1]=0):r[66]<=.14679649472236633?r[38]<=-.849043995141983?r[23]<=-.7393799722194672?(u[0]=0,u[1]=2):(u[0]=1,u[1]=0):(u[0]=0,u[1]=28):r[15]<=-1.0964000225067139?r[98]<=.5001194924116135?r[90]<=1.1182315051555634?(u[0]=0,u[1]=3):(u[0]=1,u[1]=0):(u[0]=0,u[1]=450):(u[0]=0,u[1]=22726):r[32]<=1.1124144792556763?r[61]<=1.492464542388916?(u[0]=0,u[1]=4):(u[0]=2,u[1]=0):r[84]<=1.4919919967651367?r[45]<=1.2499060034751892?(u[0]=0,u[1]=4):(u[0]=1,u[1]=0):r[85]<=1.7783635258674622?r[30]<=1.4724979996681213?r[48]<=1.4350039958953857?(u[0]=0,u[1]=158):r[27]<=1.4004199504852295?(u[0]=0,u[1]=8):(u[0]=1,u[1]=0):r[24]<=1.4294250011444092?(u[0]=3,u[1]=0):(u[0]=0,u[1]=2):(u[0]=0,u[1]=497),n(u)}),u.push(function(r){var u=new Array(2);return r[88]<=.27246150374412537?r[14]<=.25008950382471085?r[33]<=-.9417700171470642?r[95]<=-.2521599978208542?r[37]<=-1.5853384733200073?(u[0]=0,u[1]=9):(u[0]=2,u[1]=0):(u[0]=0,u[1]=1326):r[78]<=-.12723200023174286?(u[0]=8,u[1]=0):r[90]<=.12113000079989433?r[87]<=.18122699856758118?r[35]<=-.048834001645445824?(u[0]=0,u[1]=6):(u[0]=7,u[1]=0):(u[0]=0,u[1]=23):r[88]<=.27242450416088104?r[25]<=.11687950044870377?(u[0]=0,u[1]=212):r[15]<=-.08513449877500534?(u[0]=1,u[1]=0):r[81]<=.22439949959516525?r[76]<=.46483951807022095?(u[0]=0,u[1]=3):(u[0]=1,u[1]=0):(u[0]=0,u[1]=60):(u[0]=2,u[1]=0):(u[0]=4,u[1]=0):r[3]<=.5813995003700256?r[32]<=-1.3087549805641174?r[93]<=.20632649958133698?(u[0]=1,u[1]=0):(u[0]=0,u[1]=18):r[95]<=-.0014519999967887998?r[48]<=.06511650211177766?(u[0]=0,u[1]=1):(u[0]=3,u[1]=0):r[98]<=.21303000301122665?r[12]<=.3291270062327385?r[91]<=.6510780155658722?(u[0]=0,u[1]=846):r[42]<=-.8160710036754608?(u[0]=0,u[1]=7):(u[0]=1,u[1]=0):(u[0]=7,u[1]=0):r[92]<=.44097501039505005?r[17]<=.37562400102615356?r[47]<=.5648730099201202?r[3]<=.06353100016713142?(u[0]=0,u[1]=4608):r[3]<=.06376149877905846?(u[0]=1,u[1]=0):r[43]<=.36368849873542786?r[41]<=.12992499768733978?(u[0]=0,u[1]=903):r[73]<=.19563700258731842?(u[0]=1,u[1]=0):r[27]<=-.03097549919039011?r[22]<=-.012564499862492085?(u[0]=0,u[1]=6):(u[0]=3,u[1]=0):r[87]<=.39276599884033203?r[87]<=.3919764906167984&&r[12]<=.28582750260829926?r[34]<=.23506800085306168?(u[0]=0,u[1]=53):r[35]<=.25790149718523026?r[82]<=.36640051007270813?(u[0]=0,u[1]=1):(u[0]=1,u[1]=0):(u[0]=0,u[1]=5):(u[0]=1,u[1]=0):(u[0]=0,u[1]=316):r[67]<=.4366839975118637?r[34]<=.2646064981818199?(u[0]=0,u[1]=3):(u[0]=3,u[1]=0):(u[0]=0,u[1]=16):(u[0]=2,u[1]=0):(u[0]=6,u[1]=0):r[14]<=.23356349766254425?r[92]<=.9712055027484894?r[93]<=.5073989927768707?r[54]<=.23403900116682053?r[93]<=.5073220133781433?r[48]<=.3358590006828308?(u[0]=0,u[1]=2045):r[48]<=.3361330032348633?(u[0]=1,u[1]=0):(u[0]=0,u[1]=21):(u[0]=1,u[1]=0):(u[0]=0,u[1]=2634):(u[0]=0,u[1]=26877):r[92]<=.971281498670578?(u[0]=1,u[1]=0):r[36]<=-.9081295132637024?r[76]<=.7557590007781982?(u[0]=0,u[1]=49):(u[0]=1,u[1]=0):(u[0]=0,u[1]=2295):r[61]<=.22603299468755722?r[40]<=.3348959982395172?(u[0]=0,u[1]=3):(u[0]=2,u[1]=0):r[62]<=.33354100584983826?r[15]<=.3288400024175644?r[94]<=.4486754983663559?r[53]<=.30114850401878357?(u[0]=0,u[1]=14):(u[0]=1,u[1]=0):(u[0]=0,u[1]=81):r[31]<=.23499499261379242?(u[0]=4,u[1]=0):(u[0]=0,u[1]=3):r[94]<=.38592299818992615?r[1]<=.2234330028295517?(u[0]=0,u[1]=3):(u[0]=2,u[1]=0):r[5]<=.7914074957370758?r[86]<=.8787179887294769?r[31]<=.7525784969329834?r[36]<=.6747404932975769?r[39]<=.4415159970521927?r[98]<=.5520220100879669?r[79]<=.4296109974384308?r[73]<=.5328159928321838?(u[0]=0,u[1]=44):r[65]<=.42284800112247467?(u[0]=0,u[1]=1):(u[0]=3,u[1]=0):(u[0]=0,u[1]=667):r[80]<=.4668465107679367?r[73]<=.6235074996948242?(u[0]=0,u[1]=277):r[48]<=.4019030034542084?(u[0]=1,u[1]=0):(u[0]=0,u[1]=2):(u[0]=0,u[1]=4672):r[84]<=.4561050087213516?r[62]<=.41468149423599243?(u[0]=1,u[1]=0):(u[0]=0,u[1]=7):r[20]<=.3847620040178299?r[70]<=.7468295097351074?(u[0]=0,u[1]=1678):r[55]<=.5489344894886017?r[52]<=.5986924767494202?(u[0]=0,u[1]=14):(u[0]=1,u[1]=0):(u[0]=0,u[1]=187):r[31]<=.3624264895915985?r[87]<=.782150000333786?r[96]<=.807966023683548?(u[0]=0,u[1]=63):r[56]<=.5670214891433716?(u[0]=2,u[1]=0):(u[0]=0,u[1]=4):r[65]<=.652785986661911?(u[0]=2,u[1]=0):(u[0]=0,u[1]=3):r[56]<=.40350601077079773?r[91]<=.6390095055103302?(u[0]=2,u[1]=0):(u[0]=0,u[1]=13):(u[0]=0,u[1]=941):r[65]<=.6879979968070984?(u[0]=2,u[1]=0):r[5]<=.46143999695777893?(u[0]=0,u[1]=64):(u[0]=1,u[1]=0):(u[0]=3,u[1]=0):r[63]<=.6661830246448517?r[76]<=.9173490107059479?(u[0]=0,u[1]=258):r[64]<=.6132300198078156?r[34]<=.49470801651477814?(u[0]=0,u[1]=1):(u[0]=1,u[1]=0):(u[0]=0,u[1]=48):(u[0]=0,u[1]=22813):r[71]<=1.4700600504875183?r[62]<=1.465004026889801?(u[0]=0,u[1]=5):(u[0]=1,u[1]=0):(u[0]=0,u[1]=44):r[44]<=.6270299851894379?(u[0]=3,u[1]=0):r[54]<=1.7142009735107422?(u[0]=0,u[1]=415):r[99]<=1.8018280267715454?(u[0]=3,u[1]=0):(u[0]=0,u[1]=237),n(u)}),u.push(function(r){var u=new Array(2);return r[44]<=-1.8463680148124695?(u[0]=2,u[1]=0):r[97]<=-.28662949800491333?r[19]<=-1.7709879875183105?(u[0]=0,u[1]=11):(u[0]=6,u[1]=0):r[4]<=.6607300043106079?r[99]<=-.3781444877386093?r[43]<=-1.2658414840698242?(u[0]=0,u[1]=8):(u[0]=2,u[1]=0):r[94]<=.3716139942407608?r[14]<=.2503644973039627?r[7]<=-.006815499858930707?r[18]<=.01387100014835596?(u[0]=0,u[1]=2160):r[98]<=.04513850063085556?(u[0]=2,u[1]=0):r[22]<=-.05250299908220768?r[42]<=.08941100165247917?r[88]<=.3220580071210861?(u[0]=0,u[1]=1):(u[0]=1,u[1]=0):(u[0]=0,u[1]=17):(u[0]=0,u[1]=514):r[11]<=.29345549643039703?r[75]<=.14004499465227127?(u[0]=2,u[1]=0):r[97]<=.12098699808120728?r[21]<=.05341799929738045?(u[0]=0,u[1]=6):(u[0]=3,u[1]=0):r[70]<=.11492550000548363?r[7]<=.005445499904453754?(u[0]=1,u[1]=0):(u[0]=0,u[1]=8):r[47]<=.38709449768066406?r[27]<=-.08365649729967117?r[50]<=.17858850210905075?(u[0]=0,u[1]=18):(u[0]=1,u[1]=0):r[43]<=.22339950501918793?(u[0]=0,u[1]=676):r[27]<=-.006410500034689903?r[26]<=-.0447004996240139?(u[0]=0,u[1]=2):(u[0]=1,u[1]=0):r[6]<=.16387149691581726?(u[0]=0,u[1]=177):(u[0]=1,u[1]=0):r[29]<=.09822450205683708?(u[0]=3,u[1]=0):(u[0]=0,u[1]=5):(u[0]=1,u[1]=0):r[42]<=.1044590026140213?(u[0]=0,u[1]=4):r[82]<=.4254795014858246?(u[0]=7,u[1]=0):(u[0]=0,u[1]=1):r[10]<=.18730850517749786?r[93]<=.9725409746170044?r[96]<=.32692548632621765?r[96]<=.32672999799251556?(u[0]=0,u[1]=428):(u[0]=1,u[1]=0):r[93]<=.4032755047082901?r[11]<=.12477000057697296?(u[0]=0,u[1]=1945):r[32]<=-.0822564996778965?(u[0]=1,u[1]=0):(u[0]=0,u[1]=128):(u[0]=0,u[1]=31551):r[98]<=.49333199858665466?r[23]<=-.7810450196266174?(u[0]=0,u[1]=1):(u[0]=5,u[1]=0):r[38]<=-.8508244752883911?r[74]<=.6203914880752563?(u[0]=0,u[1]=90):(u[0]=2,u[1]=0):(u[0]=0,u[1]=2295):r[63]<=.18759100139141083?r[68]<=.29355400800704956?(u[0]=0,u[1]=3):(u[0]=2,u[1]=0):r[92]<=.44025251269340515?r[32]<=.25640149414539337?(u[0]=0,u[1]=211):r[8]<=.2621610015630722?r[0]<=.23762550204992294?(u[0]=0,u[1]=20):(u[0]=3,u[1]=0):(u[0]=5,u[1]=0):r[61]<=.22492199391126633?r[43]<=.3617819994688034?(u[0]=0,u[1]=23):r[30]<=.21003049612045288?(u[0]=2,u[1]=0):(u[0]=0,u[1]=1):r[98]<=.23580949753522873?(u[0]=1,u[1]=0):r[83]<=.49905750155448914?r[88]<=.7468419969081879?r[19]<=.3712420016527176?r[55]<=.5217020213603973?r[4]<=.30890049040317535?(u[0]=0,u[1]=918):r[88]<=.467011496424675?r[34]<=.32992398738861084?(u[0]=1,u[1]=0):(u[0]=0,u[1]=3):(u[0]=0,u[1]=26):r[0]<=.2705814987421036?(u[0]=0,u[1]=43):(u[0]=1,u[1]=0):r[56]<=.3368925005197525?r[22]<=.32738250494003296?(u[0]=0,u[1]=2):(u[0]=2,u[1]=0):(u[0]=0,u[1]=35):(u[0]=1,u[1]=0):r[94]<=.9508449733257294?r[49]<=.8825139999389648?r[22]<=.4626224935054779?r[66]<=.2958409935235977?r[11]<=.1729540005326271?r[98]<=.49651549756526947?(u[0]=1,u[1]=0):(u[0]=0,u[1]=1):(u[0]=0,u[1]=26):r[15]<=.414528489112854?r[54]<=.60343998670578?(u[0]=0,u[1]=7720):r[78]<=.5535604953765869?r[12]<=.3400775045156479?(u[0]=0,u[1]=12):(u[0]=1,u[1]=0):(u[0]=0,u[1]=803):r[36]<=.5124339759349823?(u[0]=0,u[1]=433):r[34]<=.4105194956064224?(u[0]=2,u[1]=0):(u[0]=0,u[1]=103):r[16]<=.29822950065135956?r[11]<=.34292951226234436?(u[0]=0,u[1]=18):r[9]<=.31871600449085236?(u[0]=4,u[1]=0):(u[0]=0,u[1]=1):r[83]<=.8232499957084656?r[37]<=.6759949922561646?r[84]<=.6012044847011566?r[72]<=.6954310238361359?(u[0]=0,u[1]=19):(u[0]=1,u[1]=0):(u[0]=0,u[1]=297):r[66]<=.7589419782161713?(u[0]=2,u[1]=0):(u[0]=0,u[1]=2):(u[0]=0,u[1]=633):r[85]<=.862866997718811?(u[0]=2,u[1]=0):(u[0]=0,u[1]=5):(u[0]=0,u[1]=22786):r[98]<=.6576689928770065?(u[0]=1,u[1]=0):r[4]<=.6608645021915436?(u[0]=1,u[1]=0):r[96]<=1.7320474982261658?r[53]<=1.5481380224227905?(u[0]=0,u[1]=249):r[20]<=1.3414145112037659?(u[0]=0,u[1]=2):(u[0]=5,u[1]=0):r[51]<=2.121928095817566?(u[0]=0,u[1]=425):r[86]<=2.305786967277527?(u[0]=1,u[1]=0):(u[0]=0,u[1]=53),n(u)}),u.push(function(r){var u=new Array(2);return r[96]<=-.2870735079050064?r[71]<=-.7949540019035339?(u[0]=0,u[1]=4):(u[0]=12,u[1]=0):r[85]<=.2933024913072586?r[18]<=.2437105029821396?r[14]<=.284293994307518&&r[9]<=.26162100583314896?r[6]<=.015374500304460526?r[96]<=.01030399976298213?r[92]<=.21176599711179733?r[12]<=-.06530249863862991?(u[0]=0,u[1]=286):(u[0]=1,u[1]=0):r[7]<=-1.8545154929161072?(u[0]=0,u[1]=4):(u[0]=5,u[1]=0):r[71]<=.42608700692653656?(u[0]=0,u[1]=2823):r[87]<=.23922500759363174?(u[0]=2,u[1]=0):(u[0]=0,u[1]=89):r[68]<=.11986749991774559?r[37]<=-.14496050029993057?(u[0]=0,u[1]=5):(u[0]=7,u[1]=0):r[81]<=.2442289963364601?r[26]<=.058257000520825386?(u[0]=0,u[1]=12):(u[0]=1,u[1]=0):(u[0]=0,u[1]=141):(u[0]=1,u[1]=0):r[43]<=.4195284992456436?(u[0]=3,u[1]=0):(u[0]=0,u[1]=1):r[95]<=.069302499294281?r[24]<=-1.263381004333496?(u[0]=0,u[1]=2):(u[0]=2,u[1]=0):r[4]<=.6607300043106079?r[99]<=-.329074002802372?(u[0]=2,u[1]=0):r[64]<=1.9307199716567993?r[97]<=.4875064939260483?r[12]<=.3713645040988922?r[16]<=.32031650841236115?r[4]<=.3094179928302765?r[19]<=.3097735047340393?r[20]<=.24741549789905548?r[95]<=.31333649158477783?r[48]<=.40848100185394287?r[73]<=.34787599742412567?(u[0]=0,u[1]=390):r[73]<=.34835800528526306?(u[0]=2,u[1]=0):r[66]<=.23077650368213654?r[95]<=.31123949587345123?(u[0]=0,u[1]=22):(u[0]=1,u[1]=0):(u[0]=0,u[1]=202):r[99]<=.279167003929615?(u[0]=0,u[1]=7):(u[0]=1,u[1]=0):r[41]<=.3793199956417084?r[7]<=.04346749931573868?(u[0]=0,u[1]=5337):r[59]<=.10284950211644173?r[37]<=.09245000034570694?(u[0]=0,u[1]=40):r[83]<=.29579100012779236?(u[0]=0,u[1]=1):(u[0]=1,u[1]=0):r[72]<=.3225345015525818?r[72]<=.32184500992298126?r[6]<=.024832499213516712?r[7]<=.04368799924850464?(u[0]=1,u[1]=0):(u[0]=0,u[1]=15):(u[0]=0,u[1]=349):(u[0]=1,u[1]=0):(u[0]=0,u[1]=1734):r[65]<=.30394499003887177?r[7]<=.10288500413298607?(u[0]=0,u[1]=5):(u[0]=1,u[1]=0):(u[0]=0,u[1]=103):r[56]<=.19279799610376358?r[23]<=.23373949527740479?(u[0]=0,u[1]=4):(u[0]=2,u[1]=0):(u[0]=0,u[1]=123):r[2]<=.29369549453258514?(u[0]=0,u[1]=36):(u[0]=1,u[1]=0):r[18]<=.2922835052013397?(u[0]=0,u[1]=6):(u[0]=1,u[1]=0):r[81]<=.566877007484436?r[58]<=.5367454886436462?(u[0]=0,u[1]=22):(u[0]=1,u[1]=0):(u[0]=2,u[1]=0):r[31]<=.3040644973516464?(u[0]=0,u[1]=3):(u[0]=7,u[1]=0):r[8]<=.2047325000166893?r[90]<=.4495664983987808?r[44]<=.06292050145566463?r[29]<=.09143950045108795?(u[0]=0,u[1]=126):r[16]<=-.012841000338084996?(u[0]=1,u[1]=0):(u[0]=0,u[1]=11):(u[0]=0,u[1]=1251):r[6]<=-1.3976319432258606?r[57]<=-.10775500163435936?(u[0]=0,u[1]=648):r[71]<=.35159750282764435?r[14]<=-1.2703660130500793?(u[0]=1,u[1]=0):(u[0]=0,u[1]=1):(u[0]=0,u[1]=98):(u[0]=0,u[1]=28639):r[62]<=.18823449313640594?(u[0]=1,u[1]=0):r[89]<=.3833794891834259?(u[0]=1,u[1]=0):r[82]<=.7771599888801575?r[49]<=.8484844863414764?r[22]<=.4307515025138855?r[83]<=.8163309991359711?r[67]<=.3309614956378937?r[96]<=.4845625013113022?r[54]<=.26169050484895706?(u[0]=0,u[1]=1):(u[0]=1,u[1]=0):(u[0]=0,u[1]=20):r[92]<=.42925649881362915?r[78]<=.37787599861621857?r[72]<=.379393994808197?(u[0]=0,u[1]=2):(u[0]=1,u[1]=0):(u[0]=0,u[1]=13):r[55]<=.27252650260925293?r[41]<=.3616909980773926?(u[0]=0,u[1]=82):(u[0]=1,u[1]=0):r[69]<=.3506229966878891?r[48]<=.26461251080036163?r[58]<=.4124165028333664?(u[0]=1,u[1]=0):(u[0]=0,u[1]=1):(u[0]=0,u[1]=24):r[87]<=.7317819893360138?(u[0]=0,u[1]=6432):r[30]<=.32185450196266174?r[29]<=.36615000665187836?r[35]<=.490058496594429?(u[0]=0,u[1]=96):r[62]<=.624160498380661?(u[0]=0,u[1]=1):(u[0]=1,u[1]=0):r[7]<=.21918050199747086?(u[0]=1,u[1]=0):(u[0]=0,u[1]=3):(u[0]=0,u[1]=569):r[36]<=.5119014978408813?(u[0]=0,u[1]=36):r[74]<=.7008240222930908?(u[0]=2,u[1]=0):(u[0]=0,u[1]=9):r[92]<=.4725790172815323?(u[0]=4,u[1]=0):r[6]<=.21246399730443954?r[56]<=.4212319999933243?r[16]<=.22217850387096405?(u[0]=0,u[1]=2):(u[0]=2,u[1]=0):(u[0]=0,u[1]=46):(u[0]=0,u[1]=463):(u[0]=3,u[1]=0):r[32]<=.4177200049161911?r[32]<=.4176190048456192?(u[0]=0,u[1]=607):(u[0]=1,u[1]=0):r[94]<=.9348579943180084?r[25]<=.766429990530014?(u[0]=0,u[1]=981):(u[0]=1,u[1]=0):(u[0]=0,u[1]=22109):r[95]<=1.9954664707183838?(u[0]=2,u[1]=0):(u[0]=0,u[1]=152):r[78]<=.9149085283279419?(u[0]=5,u[1]=0):r[0]<=.34992700815200806?r[42]<=1.2453870177268982?r[46]<=1.3771345019340515?(u[0]=0,u[1]=195):(u[0]=4,u[1]=0):(u[0]=0,u[1]=517):r[46]<=1.5650784969329834?(u[0]=0,u[1]=5):(u[0]=1,u[1]=0),n(u)}),u.push(function(r){var u=new Array(2);return r[97]<=-.42318499088287354?(u[0]=6,u[1]=0):r[95]<=.06882049888372421?r[56]<=-.7267075181007385?(u[0]=0,u[1]=357):r[81]<=.20850349962711334?r[88]<=-.027853999519720674?r[87]<=-.16086500138044357?(u[0]=1,u[1]=0):(u[0]=0,u[1]=2):r[6]<=-.11470700055360794?(u[0]=11,u[1]=0):r[25]<=-.1945045068860054?(u[0]=0,u[1]=1):(u[0]=5,u[1]=0):(u[0]=0,u[1]=3):r[50]<=1.41194748878479?r[69]<=.39214299619197845?r[42]<=.36309050023555756?r[69]<=.3920834958553314?r[89]<=.27161550521850586?r[7]<=.04709949903190136?r[66]<=-.3058544993400574?(u[0]=0,u[1]=825):r[5]<=-.575237013399601?(u[0]=1,u[1]=0):r[87]<=.15703999996185303?r[71]<=.3666680008172989?(u[0]=0,u[1]=3):(u[0]=1,u[1]=0):r[24]<=-.0525594986975193?r[24]<=-.05551949888467789?(u[0]=0,u[1]=14):(u[0]=1,u[1]=0):(u[0]=0,u[1]=127):r[0]<=.17022600024938583?r[83]<=.24784349650144577?r[68]<=.30904899537563324?(u[0]=5,u[1]=0):(u[0]=0,u[1]=2):r[18]<=.1649564951658249?(u[0]=0,u[1]=15):(u[0]=2,u[1]=0):(u[0]=0,u[1]=26):r[94]<=.33775749802589417?r[37]<=.30399100482463837?r[62]<=.33696749806404114?r[23]<=.2487649992108345?(u[0]=0,u[1]=1047):r[91]<=.34198449552059174?(u[0]=0,u[1]=2):(u[0]=1,u[1]=0):r[2]<=.15501400083303452?(u[0]=0,u[1]=55):r[91]<=.39548200368881226?(u[0]=0,u[1]=8):r[44]<=.11931649781763554?(u[0]=0,u[1]=1):(u[0]=3,u[1]=0):r[2]<=.07696999981999397?(u[0]=0,u[1]=10):(u[0]=2,u[1]=0):r[84]<=.9585939943790436?r[5]<=.1390480026602745?r[47]<=.32256199419498444?r[96]<=.3269699960947037?r[34]<=.15518099814653397?(u[0]=0,u[1]=448):r[37]<=.05287550017237663?(u[0]=2,u[1]=0):(u[0]=0,u[1]=27):r[84]<=.7798680067062378?(u[0]=0,u[1]=15110):r[83]<=.666951984167099?r[12]<=-1.6668999791145325?r[40]<=-.5372619926929474?(u[0]=0,u[1]=1):(u[0]=2,u[1]=0):(u[0]=0,u[1]=24):(u[0]=0,u[1]=563):r[72]<=.2962770015001297?r[15]<=.07391649857163429?(u[0]=0,u[1]=8):(u[0]=2,u[1]=0):(u[0]=0,u[1]=424):r[37]<=.12270500138401985?(u[0]=0,u[1]=774):r[95]<=.3370925039052963?(u[0]=1,u[1]=0):r[91]<=.3860875070095062?r[14]<=.05789249949157238?r[50]<=.28037649393081665?(u[0]=2,u[1]=0):(u[0]=0,u[1]=1):(u[0]=0,u[1]=11):r[61]<=.19231649488210678?r[10]<=.2019670084118843?(u[0]=0,u[1]=12):(u[0]=1,u[1]=0):(u[0]=0,u[1]=348):r[36]<=-.8954445123672485?(u[0]=1,u[1]=0):(u[0]=0,u[1]=62):(u[0]=2,u[1]=0):r[4]<=.2797130048274994?r[89]<=.4847929924726486?r[8]<=.2410919964313507?(u[0]=0,u[1]=33):r[4]<=.2568594962358475?(u[0]=5,u[1]=0):(u[0]=0,u[1]=2):(u[0]=0,u[1]=157):r[69]<=.3836454898118973?(u[0]=5,u[1]=0):(u[0]=0,u[1]=2):r[94]<=.3330940008163452?r[31]<=.33197349309921265?(u[0]=0,u[1]=150):(u[0]=2,u[1]=0):r[26]<=-.45183050632476807?r[98]<=.514053001999855?r[51]<=-.283464502543211?(u[0]=0,u[1]=1):(u[0]=2,u[1]=0):(u[0]=0,u[1]=354):r[3]<=.2299249991774559?r[18]<=.344528004527092?r[94]<=.48846299946308136?r[85]<=.6118369996547699?(u[0]=0,u[1]=1975):r[85]<=.6119890213012695?(u[0]=1,u[1]=0):(u[0]=0,u[1]=49):(u[0]=0,u[1]=22867):r[30]<=.3798474967479706?r[50]<=.5637055039405823?(u[0]=0,u[1]=466):r[96]<=.7498239874839783?r[84]<=.7178300023078918?(u[0]=0,u[1]=3):(u[0]=2,u[1]=0):(u[0]=0,u[1]=62):(u[0]=0,u[1]=3699):r[96]<=.323731005191803?(u[0]=4,u[1]=0):r[99]<=-.06764550507068634?(u[0]=1,u[1]=0):r[94]<=.9508189857006073?r[30]<=.7581789791584015?r[3]<=.22994200140237808?(u[0]=2,u[1]=0):r[56]<=.9370570182800293?r[99]<=.5187959969043732?r[94]<=.6571004986763?r[69]<=.5488705039024353?r[19]<=.31184349954128265?(u[0]=0,u[1]=140):r[76]<=.42831850051879883?(u[0]=1,u[1]=0):(u[0]=0,u[1]=12):r[32]<=.3588844984769821?(u[0]=0,u[1]=11):(u[0]=2,u[1]=0):r[74]<=.5384465157985687?(u[0]=2,u[1]=0):(u[0]=0,u[1]=3):r[75]<=.9236035048961639?r[29]<=.56147700548172?r[83]<=.44499050080776215?r[10]<=.37964749336242676?(u[0]=0,u[1]=59):r[59]<=.4652145057916641?(u[0]=1,u[1]=0):(u[0]=0,u[1]=2):r[2]<=.16590699553489685?r[4]<=.257083997130394?r[57]<=.5086134970188141?r[0]<=.21580900251865387?(u[0]=1,u[1]=0):(u[0]=0,u[1]=1):(u[0]=0,u[1]=5):(u[0]=0,u[1]=44):(u[0]=0,u[1]=4170):r[94]<=.6915299892425537?r[67]<=.6152029931545258?(u[0]=0,u[1]=4):(u[0]=2,u[1]=0):r[43]<=.7816019952297211?(u[0]=0,u[1]=370):r[31]<=.5643999874591827?(u[0]=1,u[1]=0):(u[0]=0,u[1]=10):r[64]<=.634038507938385?(u[0]=3,u[1]=0):(u[0]=0,u[1]=124):r[19]<=.5758894979953766?(u[0]=1,u[1]=0):(u[0]=0,u[1]=5):r[35]<=.7005585134029388?(u[0]=0,u[1]=3):(u[0]=2,u[1]=0):(u[0]=0,u[1]=19001):r[99]<=1.6087315082550049?r[98]<=1.5728915333747864?(u[0]=0,u[1]=1):(u[0]=8,u[1]=0):r[99]<=1.7376395463943481?r[35]<=1.4993579983711243?r[68]<=1.7674354910850525?(u[0]=0,u[1]=65):r[8]<=.905538022518158?(u[0]=0,u[1]=1):(u[0]=1,u[1]=0):(u[0]=2,u[1]=0):(u[0]=0,u[1]=735),n(u)}),u.push(function(r){var u=new Array(2);return r[99]<=-.5036579817533493?(u[0]=7,u[1]=0):r[97]<=-.31804248690605164?r[51]<=-1.0760034769773483?(u[0]=0,u[1]=1):(u[0]=2,u[1]=0):r[96]<=.010712000075727701?r[74]<=-.29767000675201416?(u[0]=0,u[1]=216):r[44]<=-1.3936669826507568?(u[0]=0,u[1]=11):r[48]<=-.4568459838628769?(u[0]=6,u[1]=0):r[45]<=-.03181099984794855?(u[0]=0,u[1]=6):r[93]<=.22330399602651596?(u[0]=4,u[1]=0):(u[0]=0,u[1]=1):r[92]<=-.07055699825286865?r[59]<=-.4306184872984886?(u[0]=0,u[1]=3):(u[0]=1,u[1]=0):r[97]<=.27759949862957?r[11]<=.23208799958229065?r[90]<=.7374610006809235?r[3]<=.03634350001811981?(u[0]=0,u[1]=1689):r[94]<=.11597950011491776?r[56]<=-.6917930170893669?(u[0]=0,u[1]=1):(u[0]=2,u[1]=0):r[48]<=.07782150059938431?(u[0]=0,u[1]=137):r[26]<=-.02593499980866909?(u[0]=1,u[1]=0):(u[0]=0,u[1]=40):(u[0]=2,u[1]=0):r[23]<=.09729349985718727?(u[0]=0,u[1]=1):(u[0]=10,u[1]=0):r[95]<=.39500099420547485?r[21]<=.27474699914455414?r[13]<=.2585369944572449?r[2]<=.049141500145196915?r[82]<=.2699600011110306?r[83]<=.330143004655838?(u[0]=0,u[1]=316):r[91]<=.3085625022649765?(u[0]=1,u[1]=0):(u[0]=0,u[1]=8):(u[0]=0,u[1]=1247):r[41]<=.3181599974632263?r[49]<=.12973549962043762?(u[0]=0,u[1]=612):r[95]<=.393140509724617?r[26]<=-.036674998700618744?r[99]<=.39487849175930023?(u[0]=2,u[1]=0):(u[0]=0,u[1]=10):r[1]<=.04632150009274483?r[6]<=.13850649818778038?(u[0]=0,u[1]=28):(u[0]=1,u[1]=0):(u[0]=0,u[1]=223):r[49]<=.17138899862766266?r[33]<=.09345349855720997?(u[0]=5,u[1]=0):(u[0]=0,u[1]=2):(u[0]=0,u[1]=12):r[60]<=.3341919928789139?(u[0]=3,u[1]=0):(u[0]=0,u[1]=5):r[91]<=.3259290009737015?(u[0]=1,u[1]=0):(u[0]=0,u[1]=9):r[54]<=.45375199615955353?r[11]<=.3405134975910187?(u[0]=0,u[1]=11):(u[0]=1,u[1]=0):(u[0]=3,u[1]=0):r[10]<=1.6889875531196594?r[13]<=1.1944245100021362?r[41]<=1.5243685245513916?r[1]<=.4210605025291443?r[78]<=.5547325015068054?r[41]<=.5742590129375458?r[13]<=.3690820038318634?r[2]<=.26593150198459625?r[34]<=.11835500225424767?r[94]<=.8951945006847382?(u[0]=0,u[1]=13697):r[9]<=-1.8480375409126282?r[55]<=-.2465599998831749?(u[0]=0,u[1]=29):(u[0]=2,u[1]=0):(u[0]=0,u[1]=300):r[34]<=.11837299913167953?(u[0]=3,u[1]=0):r[91]<=.3858094960451126?r[99]<=.4965520054101944?r[4]<=.0867919996380806?(u[0]=0,u[1]=1121):r[67]<=.47833549976348877?(u[0]=0,u[1]=49):(u[0]=2,u[1]=0):r[10]<=.18115900456905365?(u[0]=0,u[1]=67):r[10]<=.20766450464725494?(u[0]=2,u[1]=0):(u[0]=0,u[1]=7):r[95]<=.5515355169773102?r[4]<=.28079549968242645?r[11]<=.17042399942874908?r[74]<=.3214010000228882?r[8]<=.08690249919891357?(u[0]=0,u[1]=169):r[47]<=.3212990015745163?(u[0]=0,u[1]=39):(u[0]=1,u[1]=0):(u[0]=0,u[1]=3352):r[21]<=.0876615010201931?r[96]<=.4173389971256256?(u[0]=2,u[1]=0):(u[0]=0,u[1]=16):r[87]<=.4154530018568039?r[3]<=.2166990041732788?(u[0]=0,u[1]=25):(u[0]=1,u[1]=0):(u[0]=0,u[1]=808):r[14]<=.3403644859790802?r[36]<=.2627905011177063?r[38]<=.28284449875354767?(u[0]=0,u[1]=11):(u[0]=1,u[1]=0):(u[0]=0,u[1]=40):r[72]<=.4647600054740906?(u[0]=2,u[1]=0):(u[0]=0,u[1]=4):(u[0]=0,u[1]=7158):r[22]<=.23086900264024734?(u[0]=0,u[1]=381):r[71]<=.31805600225925446?r[80]<=.42467649281024933?(u[0]=0,u[1]=3):(u[0]=2,u[1]=0):r[88]<=.7612150013446808?r[66]<=.41627949476242065?r[80]<=.5462344884872437?(u[0]=0,u[1]=50):r[82]<=.5294280052185059?(u[0]=1,u[1]=0):(u[0]=0,u[1]=6):(u[0]=0,u[1]=330):r[99]<=.6229635179042816?(u[0]=2,u[1]=0):(u[0]=0,u[1]=2):r[16]<=.4610060006380081?r[26]<=.47457750141620636?(u[0]=0,u[1]=100):r[19]<=.40858300030231476?(u[0]=1,u[1]=0):(u[0]=0,u[1]=2):(u[0]=2,u[1]=0):r[46]<=.4554554969072342?(u[0]=3,u[1]=0):(u[0]=0,u[1]=15):r[94]<=.9316455125808716?r[88]<=1.2131834626197815?r[52]<=.7125954926013947?r[37]<=.49004800617694855?r[43]<=.4870130121707916?(u[0]=0,u[1]=13527):r[36]<=.39300550520420074?r[70]<=.566769003868103?r[65]<=.6285895109176636?(u[0]=0,u[1]=52):r[6]<=.11610349896363914?(u[0]=0,u[1]=3):(u[0]=1,u[1]=0):(u[0]=0,u[1]=247):(u[0]=0,u[1]=925):r[5]<=.1193469986319542?r[6]<=.1622764989733696?(u[0]=0,u[1]=90):(u[0]=2,u[1]=0):r[85]<=.5873565077781677?r[1]<=.2584590017795563?(u[0]=0,u[1]=35):r[78]<=.665849506855011?(u[0]=0,u[1]=1):(u[0]=1,u[1]=0):r[66]<=.534758985042572?r[49]<=.5984984934329987?(u[0]=0,u[1]=110):r[30]<=.3419719934463501?(u[0]=1,u[1]=0):(u[0]=0,u[1]=7):(u[0]=0,u[1]=1119):r[10]<=.1899310052394867?r[4]<=.25045350193977356?(u[0]=0,u[1]=2):(u[0]=2,u[1]=0):r[95]<=.9991664886474609?(u[0]=0,u[1]=180):(u[0]=1,u[1]=0):(u[0]=1,u[1]=0):(u[0]=0,u[1]=25153):r[87]<=.9442484974861145?r[6]<=.4879854917526245?(u[0]=0,u[1]=48):(u[0]=2,u[1]=0):(u[0]=0,u[1]=184):r[16]<=.5652880072593689?(u[0]=1,u[1]=0):(u[0]=0,u[1]=18):r[84]<=1.5411295294761658?r[39]<=1.2347784638404846?(u[0]=0,u[1]=12):(u[0]=2,u[1]=0):r[90]<=1.8086450099945068?r[39]<=1.5045160055160522?(u[0]=0,u[1]=191):(u[0]=2,u[1]=0):(u[0]=0,u[1]=615):r[68]<=2.2489134073257446?r[27]<=1.9137750267982483?(u[0]=0,u[1]=1):(u[0]=1,u[1]=0):(u[0]=0,u[1]=14),n(u)}),u.push(function(r){var u=new Array(2);return r[79]<=-.8405629992485046?(u[0]=1,u[1]=0):r[91]<=-.2745889872312546?r[34]<=-.9154279753565788?(u[0]=0,u[1]=13):(u[0]=2,u[1]=0):r[92]<=-.09400750324130058?r[60]<=-.9109110236167908?(u[0]=0,u[1]=77):(u[0]=4,u[1]=0):r[95]<=.06421300023794174?r[31]<=-.04945550113916397?r[89]<=.43393799662590027?r[90]<=.366518497467041?(u[0]=0,u[1]=259):r[14]<=-1.8073735237121582?(u[0]=1,u[1]=0):(u[0]=0,u[1]=1):(u[0]=1,u[1]=0):(u[0]=7,u[1]=0):r[11]<=-2.416904926300049?r[46]<=-1.2021080255508423?(u[0]=0,u[1]=8):(u[0]=1,u[1]=0):r[92]<=.44096000492572784?r[14]<=.3171450048685074?r[10]<=.18401099741458893?r[14]<=.29191549122333527?r[91]<=.014001499861478806?r[91]<=.013049500063061714?(u[0]=0,u[1]=25):(u[0]=1,u[1]=0):r[11]<=-.011142999865114689?(u[0]=0,u[1]=4098):r[70]<=.10944799706339836?r[24]<=.04236899968236685?(u[0]=0,u[1]=5):(u[0]=2,u[1]=0):r[72]<=.19143499433994293?r[40]<=.009688499907497317?(u[0]=0,u[1]=52):r[35]<=.13922550156712532?(u[0]=4,u[1]=0):(u[0]=0,u[1]=3):r[37]<=.3066769987344742?r[95]<=.5744719803333282?r[24]<=-.10230549797415733?r[46]<=.21843300014734268?(u[0]=0,u[1]=10):(u[0]=1,u[1]=0):r[25]<=-.0062824999913573265?r[51]<=.3064265102148056?(u[0]=0,u[1]=203):r[14]<=.044711001217365265?(u[0]=0,u[1]=5):(u[0]=1,u[1]=0):(u[0]=0,u[1]=2653):r[80]<=.40577349066734314?r[47]<=.28215549886226654?(u[0]=0,u[1]=16):(u[0]=2,u[1]=0):(u[0]=0,u[1]=161):r[36]<=.20717649906873703?(u[0]=2,u[1]=0):(u[0]=0,u[1]=110):(u[0]=1,u[1]=0):r[10]<=.18816649913787842?r[10]<=.18792500346899033?r[75]<=.2540680021047592?(u[0]=1,u[1]=0):(u[0]=0,u[1]=16):(u[0]=5,u[1]=0):r[18]<=.27383600175380707?r[37]<=.41250500082969666?(u[0]=0,u[1]=353):(u[0]=1,u[1]=0):r[67]<=.4350595027208328?(u[0]=2,u[1]=0):(u[0]=0,u[1]=7):r[10]<=.3278834968805313?(u[0]=0,u[1]=3):(u[0]=6,u[1]=0):r[98]<=.02596799936145544?r[73]<=.27305200695991516?(u[0]=0,u[1]=16):(u[0]=2,u[1]=0):r[11]<=1.7624444961547852?r[48]<=1.4355014562606812?r[94]<=.40248601138591766?r[18]<=.2575464993715286?r[5]<=.07564850151538849?(u[0]=0,u[1]=456):r[18]<=-.037814000621438026?(u[0]=1,u[1]=0):(u[0]=0,u[1]=94):r[85]<=.5274634808301926?(u[0]=2,u[1]=0):(u[0]=0,u[1]=5):r[92]<=.9821965098381042?r[13]<=.9263594746589661?r[90]<=1.092523455619812?r[27]<=.8210639953613281?r[7]<=.5076539814472198?r[3]<=.24405249953269958?r[92]<=.9821834862232208?r[95]<=.514629989862442?r[40]<=.47682899236679077?r[67]<=.348986491560936?(u[0]=0,u[1]=2529):r[95]<=.5145905017852783?r[74]<=.3211890012025833?r[95]<=.4930019974708557?(u[0]=0,u[1]=51):r[64]<=.3226404935121536?(u[0]=1,u[1]=0):(u[0]=0,u[1]=5):r[75]<=.35057100653648376?r[19]<=-.06658199802041054?r[8]<=.06900900043547153?(u[0]=0,u[1]=8):(u[0]=1,u[1]=0):(u[0]=0,u[1]=81):(u[0]=0,u[1]=2291):(u[0]=1,u[1]=0):r[36]<=.36459100246429443?(u[0]=1,u[1]=0):(u[0]=0,u[1]=3):r[35]<=.5074129998683929?r[25]<=.4196709990501404?r[9]<=-1.848593533039093?r[54]<=-.3063744902610779?(u[0]=0,u[1]=699):r[61]<=.03979099914431572?(u[0]=1,u[1]=0):(u[0]=0,u[1]=3):(u[0]=0,u[1]=29497):r[71]<=.4946275055408478?r[10]<=.20624399930238724?r[10]<=.18577250093221664?(u[0]=0,u[1]=10):(u[0]=1,u[1]=0):(u[0]=0,u[1]=35):(u[0]=0,u[1]=603):r[72]<=.5703050196170807?r[72]<=.5678465068340302?(u[0]=0,u[1]=42):(u[0]=1,u[1]=0):(u[0]=0,u[1]=769):(u[0]=2,u[1]=0):r[3]<=.2440824955701828?r[41]<=.3887315094470978?(u[0]=2,u[1]=0):(u[0]=0,u[1]=1):r[83]<=.48836649954319?r[9]<=.3226495087146759?(u[0]=0,u[1]=212):r[48]<=.497250497341156?r[5]<=.26551298797130585?r[77]<=.5469085276126862?r[50]<=.3408225029706955?(u[0]=0,u[1]=1):(u[0]=2,u[1]=0):(u[0]=0,u[1]=3):(u[0]=0,u[1]=26):(u[0]=1,u[1]=0):r[90]<=.8386209905147552?(u[0]=0,u[1]=3008):r[61]<=.5337314903736115?r[36]<=.5194749981164932?(u[0]=0,u[1]=8):r[66]<=.6630789935588837?(u[0]=1,u[1]=0):(u[0]=0,u[1]=1):(u[0]=0,u[1]=1436):r[97]<=.5273129940032959?(u[0]=2,u[1]=0):r[73]<=.6410835087299347?r[72]<=.6522859930992126?(u[0]=0,u[1]=4):(u[0]=3,u[1]=0):(u[0]=0,u[1]=376):r[75]<=.8495835065841675?(u[0]=1,u[1]=0):(u[0]=0,u[1]=9):r[93]<=.8611885011196136?(u[0]=1,u[1]=0):(u[0]=0,u[1]=17):(u[0]=1,u[1]=0):r[13]<=-1.3460925221443176?r[99]<=.36726199090480804?(u[0]=1,u[1]=0):(u[0]=0,u[1]=535):(u[0]=0,u[1]=23375):r[48]<=1.4356164932250977?(u[0]=2,u[1]=0):r[84]<=1.785971999168396?r[47]<=1.499128520488739?(u[0]=0,u[1]=24):r[55]<=1.6811109781265259?(u[0]=0,u[1]=3):(u[0]=2,u[1]=0):(u[0]=0,u[1]=593):r[33]<=2.087306499481201?(u[0]=1,u[1]=0):(u[0]=0,u[1]=13),n(u)}),u.push(function(r){var u=new Array(2);return r[97]<=-.3782304972410202?(u[0]=6,u[1]=0):r[99]<=-.3741384893655777?r[55]<=-.8735855221748352?(u[0]=0,u[1]=12):(u[0]=7,u[1]=0):r[92]<=.020496999844908714?r[29]<=.10520949773490429?r[17]<=-.04250999912619591?(u[0]=0,u[1]=231):(u[0]=1,u[1]=0):(u[0]=8,u[1]=0):r[88]<=.49442149698734283?r[26]<=.48841750621795654?r[16]<=.42629650235176086?r[39]<=.45952101051807404?r[12]<=.4600115120410919?r[51]<=.4884994924068451?r[41]<=.5123195052146912?r[93]<=.297993004322052?r[10]<=.2878895103931427?r[23]<=.2487649992108345?r[51]<=.13772500306367874?r[12]<=-2.4064334630966187?r[58]<=-.7244945168495178?(u[0]=0,u[1]=56):(u[0]=1,u[1]=0):(u[0]=0,u[1]=1078):r[33]<=.008989000227302313?r[83]<=.242125004529953?r[11]<=-.08648050110787153?(u[0]=0,u[1]=1):(u[0]=7,u[1]=0):(u[0]=0,u[1]=22):r[81]<=.2394770011305809?r[82]<=.24605949968099594?(u[0]=0,u[1]=2):(u[0]=2,u[1]=0):r[3]<=.12596149742603302?(u[0]=0,u[1]=460):r[64]<=.19236599653959274?(u[0]=1,u[1]=0):(u[0]=0,u[1]=17):r[58]<=.2959275022149086?(u[0]=1,u[1]=0):(u[0]=0,u[1]=3):(u[0]=1,u[1]=0):r[15]<=.04280399903655052?r[92]<=.2929535061120987?r[10]<=.02114200033247471?(u[0]=0,u[1]=206):r[72]<=.19488199800252914?r[93]<=.37223049998283386?(u[0]=1,u[1]=0):(u[0]=0,u[1]=1):(u[0]=0,u[1]=20):(u[0]=0,u[1]=6279):r[17]<=.06039050035178661?r[27]<=-.0996984988451004?r[26]<=-.04486650042235851?(u[0]=3,u[1]=0):(u[0]=0,u[1]=3):r[60]<=.13991699367761612?r[30]<=-.012586500495672226?r[37]<=.08482050150632858?(u[0]=0,u[1]=4):(u[0]=1,u[1]=0):(u[0]=0,u[1]=13):r[15]<=.04286650009453297?r[72]<=.3301605135202408?(u[0]=0,u[1]=1):(u[0]=1,u[1]=0):r[20]<=.1062375009059906?(u[0]=0,u[1]=732):r[17]<=.06023400090634823?r[14]<=-.017392000183463097?r[40]<=.1764035001397133?r[73]<=.38163599371910095?(u[0]=1,u[1]=0):(u[0]=0,u[1]=1):(u[0]=0,u[1]=10):r[65]<=.27707649767398834?r[49]<=.30237799882888794?(u[0]=0,u[1]=37):(u[0]=1,u[1]=0):(u[0]=0,u[1]=184):(u[0]=1,u[1]=0):r[20]<=.002591000054962933?r[28]<=-.0034160001087002456?r[52]<=.254987508058548?(u[0]=0,u[1]=9):(u[0]=2,u[1]=0):(u[0]=0,u[1]=69):r[40]<=.3074774891138077?(u[0]=0,u[1]=2281):r[51]<=.1735135018825531?r[55]<=.25591950863599777?(u[0]=1,u[1]=0):(u[0]=0,u[1]=2):(u[0]=0,u[1]=695):r[35]<=.31648699939250946?(u[0]=1,u[1]=0):(u[0]=0,u[1]=4):r[99]<=.45255450904369354?(u[0]=2,u[1]=0):(u[0]=0,u[1]=61):r[78]<=.4921165108680725?(u[0]=1,u[1]=0):(u[0]=0,u[1]=2):r[95]<=.3476480096578598?(u[0]=6,u[1]=0):(u[0]=0,u[1]=37):(u[0]=3,u[1]=0):(u[0]=4,u[1]=0):r[9]<=1.5882750153541565?r[96]<=.26781798899173737?r[70]<=.35729949176311493?(u[0]=0,u[1]=40):r[92]<=.5277764797210693?(u[0]=0,u[1]=2):(u[0]=3,u[1]=0):r[47]<=1.4120244979858398?r[74]<=.8662000000476837?r[26]<=.8073540031909943?r[8]<=.7755649983882904?r[33]<=.7623949944972992?r[85]<=1.25969398021698?r[3]<=.24921949952840805?r[38]<=.5129390060901642?r[10]<=-1.788544476032257?r[17]<=-1.0371044874191284?(u[0]=0,u[1]=2007):r[80]<=.43038949370384216?r[50]<=-.5723004937171936?(u[0]=0,u[1]=2):(u[0]=1,u[1]=0):(u[0]=0,u[1]=37):(u[0]=0,u[1]=31738):r[90]<=.5949119925498962?r[11]<=.3693599998950958?(u[0]=0,u[1]=33):r[68]<=.6005445122718811?(u[0]=0,u[1]=4):(u[0]=1,u[1]=0):r[39]<=.4670260101556778?r[75]<=.5750595033168793?r[8]<=.2382819950580597?(u[0]=1,u[1]=0):(u[0]=0,u[1]=1):(u[0]=0,u[1]=36):(u[0]=0,u[1]=1583):r[96]<=.34042900800704956?(u[0]=1,u[1]=0):r[83]<=.4454389959573746?r[42]<=.3957560062408447?(u[0]=0,u[1]=49):r[13]<=.25019699335098267?(u[0]=0,u[1]=1):(u[0]=3,u[1]=0):r[91]<=.4911954998970032?r[60]<=.5048189908266068?(u[0]=0,u[1]=30):(u[0]=1,u[1]=0):r[10]<=.687983512878418?r[6]<=.4663254916667938?r[86]<=.4870394915342331?r[86]<=.4862929880619049?(u[0]=0,u[1]=77):(u[0]=1,u[1]=0):r[56]<=.43877899646759033?r[71]<=.777119517326355?r[3]<=.2492319941520691?(u[0]=1,u[1]=0):(u[0]=0,u[1]=713):(u[0]=2,u[1]=0):r[33]<=.36229801177978516?r[36]<=.540199488401413?(u[0]=0,u[1]=695):r[13]<=.34460699558258057?(u[0]=0,u[1]=5):(u[0]=1,u[1]=0):(u[0]=0,u[1]=3978):r[99]<=.4698779881000519?(u[0]=2,u[1]=0):(u[0]=0,u[1]=190):r[72]<=.6899054944515228?(u[0]=1,u[1]=0):(u[0]=0,u[1]=39):r[97]<=.7265069782733917?(u[0]=2,u[1]=0):(u[0]=0,u[1]=47):r[95]<=.9504570066928864?(u[0]=2,u[1]=0):(u[0]=0,u[1]=51):(u[0]=1,u[1]=0):r[3]<=.41801199316978455?(u[0]=0,u[1]=1):(u[0]=3,u[1]=0):(u[0]=0,u[1]=20366):r[47]<=1.4125224947929382?(u[0]=1,u[1]=0):r[78]<=1.6423524618148804?r[20]<=1.3101630210876465?(u[0]=0,u[1]=1):(u[0]=1,u[1]=0):r[93]<=1.8088749647140503?r[9]<=1.3186145424842834?(u[0]=0,u[1]=23):(u[0]=1,u[1]=0):(u[0]=0,u[1]=598):r[90]<=2.197682499885559?(u[0]=1,u[1]=0):(u[0]=0,u[1]=25),n(u)}),u.push(function(r){var u=new Array(2);return r[96]<=-.38452349603176117?(u[0]=10,u[1]=0):r[34]<=-1.7406604886054993?r[60]<=-.9779335260391235?(u[0]=0,u[1]=14):(u[0]=2,u[1]=0):r[95]<=.3654630035161972?r[18]<=.24626599997282028?r[94]<=.48018699884414673?r[21]<=.2500999942421913?r[9]<=-.0037770000053569674?r[89]<=.4798229932785034?r[12]<=-2.4070639610290527?r[40]<=-1.2349944710731506?(u[0]=0,u[1]=174):(u[0]=1,u[1]=0):r[43]<=-1.450712502002716?r[53]<=-.8964454829692841?(u[0]=0,u[1]=392):(u[0]=1,u[1]=0):(u[0]=0,u[1]=1706):r[79]<=-.0737059973180294?(u[0]=2,u[1]=0):(u[0]=0,u[1]=187):r[84]<=.18605349957942963?r[36]<=.005654999986290932?(u[0]=0,u[1]=1):(u[0]=6,u[1]=0):r[47]<=.3919059932231903?r[26]<=-.028669999912381172?r[50]<=.2542809918522835?r[26]<=-.029142499901354313?r[1]<=.005567499785684049?r[86]<=.3019604980945587?(u[0]=2,u[1]=0):(u[0]=0,u[1]=3):(u[0]=0,u[1]=65):(u[0]=1,u[1]=0):(u[0]=2,u[1]=0):r[41]<=.32362300157546997?r[83]<=.22835300117731094?r[21]<=.21311400085687637?r[35]<=.144678495824337?(u[0]=0,u[1]=43):r[96]<=.16541050374507904?(u[0]=1,u[1]=0):(u[0]=0,u[1]=6):(u[0]=1,u[1]=0):(u[0]=0,u[1]=711):r[39]<=.19799649715423584?(u[0]=1,u[1]=0):(u[0]=0,u[1]=6):(u[0]=1,u[1]=0):r[8]<=.07019950076937675?(u[0]=0,u[1]=2):(u[0]=3,u[1]=0):(u[0]=3,u[1]=0):r[14]<=.24847499281167984?(u[0]=0,u[1]=5):(u[0]=14,u[1]=0):r[99]<=-.25697000697255135?(u[0]=1,u[1]=0):r[7]<=1.3222914934158325?r[6]<=.7846485078334808?r[85]<=2.3400144577026367?r[92]<=.5243825018405914?r[20]<=.4188840091228485?r[42]<=.3629339933395386?r[88]<=.433743491768837?r[87]<=.4755520075559616?r[12]<=.3157389909029007?r[78]<=.2846364974975586?r[47]<=.15697599947452545?(u[0]=0,u[1]=856):r[32]<=.003223000094294548?(u[0]=1,u[1]=0):r[48]<=.13642250001430511?r[91]<=.3864220082759857?(u[0]=1,u[1]=0):(u[0]=0,u[1]=2):(u[0]=0,u[1]=70):(u[0]=0,u[1]=2142):r[88]<=.4265480041503906?(u[0]=0,u[1]=12):(u[0]=1,u[1]=0):r[7]<=.04132300056517124?(u[0]=0,u[1]=167):r[32]<=-.07214550115168095?(u[0]=1,u[1]=0):r[71]<=.3279240131378174?r[52]<=.2656629979610443?(u[0]=0,u[1]=6):(u[0]=3,u[1]=0):(u[0]=0,u[1]=75):r[86]<=.4222095012664795?r[7]<=.09743249788880348?(u[0]=0,u[1]=1833):r[17]<=-.036740999668836594?r[5]<=.03656200040131807?(u[0]=1,u[1]=0):(u[0]=0,u[1]=4):r[64]<=.1652125045657158?r[27]<=.09066500142216682?(u[0]=0,u[1]=4):(u[0]=1,u[1]=0):(u[0]=0,u[1]=200):(u[0]=0,u[1]=5797):r[56]<=.27721500396728516?r[73]<=.44276049733161926?r[71]<=.4207869917154312?(u[0]=0,u[1]=2):(u[0]=3,u[1]=0):(u[0]=0,u[1]=14):r[95]<=.491226002573967?r[61]<=.22993899881839752?(u[0]=1,u[1]=0):r[69]<=.3523299992084503?r[71]<=.33765749633312225?(u[0]=1,u[1]=0):(u[0]=0,u[1]=7):(u[0]=0,u[1]=75):(u[0]=0,u[1]=457):r[62]<=.4455669969320297?(u[0]=0,u[1]=2):(u[0]=2,u[1]=0):r[98]<=.21010249853134155?r[47]<=-.062081485986709595?(u[0]=0,u[1]=51):(u[0]=1,u[1]=0):r[88]<=1.031801998615265?r[8]<=.6553564965724945?r[9]<=.6422635018825531?r[4]<=.44257600605487823?r[41]<=.3700299859046936?r[87]<=1.0283364653587341?r[96]<=.5460585057735443?r[20]<=.3008890002965927?r[18]<=.22952299565076828?(u[0]=0,u[1]=3379):r[19]<=.16702599823474884?(u[0]=1,u[1]=0):(u[0]=0,u[1]=276):r[66]<=.3838395029306412?r[33]<=.26831699907779694?(u[0]=1,u[1]=0):(u[0]=0,u[1]=12):(u[0]=0,u[1]=121):r[7]<=-1.5353525280952454?r[55]<=-.22535649687051773?(u[0]=0,u[1]=1201):r[66]<=.1600004956126213?r[91]<=.9082874953746796?(u[0]=0,u[1]=4):(u[0]=1,u[1]=0):(u[0]=0,u[1]=44):(u[0]=0,u[1]=20076):r[66]<=.16070549935102463?(u[0]=2,u[1]=0):(u[0]=0,u[1]=62):r[56]<=.31779149174690247?r[41]<=.370914489030838?(u[0]=2,u[1]=0):(u[0]=0,u[1]=90):r[42]<=.4949225038290024?r[44]<=.6121699810028076?r[50]<=.5365149974822998?r[80]<=.4669730067253113?r[76]<=.6123480200767517?(u[0]=0,u[1]=197):r[95]<=.5068534910678864?(u[0]=1,u[1]=0):(u[0]=0,u[1]=5):(u[0]=0,u[1]=5276):r[57]<=.5048910081386566?r[0]<=.27242250740528107&&r[69]<=.7566829919815063?r[43]<=.48385000228881836?(u[0]=0,u[1]=96):r[57]<=.49832798540592194?(u[0]=0,u[1]=14):(u[0]=2,u[1]=0):(u[0]=1,u[1]=0):r[46]<=.5947214961051941?(u[0]=0,u[1]=1145):r[54]<=.5125479996204376?r[44]<=.48680950701236725?(u[0]=1,u[1]=0):(u[0]=0,u[1]=4):(u[0]=0,u[1]=139):r[24]<=.46629498898983?(u[0]=0,u[1]=43):r[10]<=.2864440008997917?(u[0]=1,u[1]=0):(u[0]=0,u[1]=4):(u[0]=0,u[1]=8369):r[81]<=.7789250016212463?r[51]<=.7424429953098297?(u[0]=0,u[1]=5):(u[0]=1,u[1]=0):(u[0]=0,u[1]=125):r[76]<=.7118650078773499?r[87]<=.7808069884777069?(u[0]=0,u[1]=1):(u[0]=1,u[1]=0):(u[0]=0,u[1]=162):r[74]<=.8483830094337463?r[35]<=.6386554837226868?(u[0]=0,u[1]=6):(u[0]=2,u[1]=0):(u[0]=0,u[1]=97):(u[0]=0,u[1]=17938):r[97]<=1.9038684964179993?(u[0]=1,u[1]=0):(u[0]=0,u[1]=63):r[22]<=.8373540043830872?(u[0]=2,u[1]=0):r[97]<=1.7412904500961304?r[23]<=1.4114499688148499?(u[0]=0,u[1]=314):r[78]<=1.7298269867897034?(u[0]=3,u[1]=0):(u[0]=0,u[1]=5):(u[0]=0,u[1]=473):r[86]<=1.9578949809074402?(u[0]=2,u[1]=0):r[95]<=2.0928205251693726?r[84]<=2.234640598297119?(u[0]=0,u[1]=7):(u[0]=1,u[1]=0):(u[0]=0,u[1]=60),n(u)});for(var e=r.slice(0,100).map(function(r){return r[1]}),t=new Array(2).fill(0),a=0;a<u.length;a++)t[u[a](e)]++;return n(t)}",
    "name": "zufallsbaum by matebabos",
    "returnType": "double",
    "description": "random forest classifier for injection molding",
    "arguments": [
        {
            "order": "0",
            "key": "series",
			"type": "devicePropName",
            "description": "plz give pressure",
			"offset": true
        }
    ]
}